Hazard Handled Processor/top_cpu.vcd
$date
	Mon Jul 28 09:33:10 2025
$end
$version
	Icarus Verilog
$end
$timescale
	1ps
$end
$scope module top_cpu_tb $end
$var reg 1 ! clk $end
$var reg 1 " reset $end
$scope module uut $end
$var wire 1 # BranchM $end
$var wire 1 ! clk $end
$var wire 1 " reset $end
$var wire 5 $ WriteAddressW2FU [4:0] $end
$var wire 5 % WriteAddressW [4:0] $end
$var wire 5 & WriteAddressM2W [4:0] $end
$var wire 5 ' WriteAddressM2FU [4:0] $end
$var wire 5 ( WriteAddressM [4:0] $end
$var wire 5 ) WriteAddressE2M [4:0] $end
$var wire 5 * WriteAddressE [4:0] $end
$var wire 5 + WriteAddressD2E [4:0] $end
$var wire 5 , WriteAddress [4:0] $end
$var wire 32 - StoreCounterOutM [31:0] $end
$var wire 32 . StoreCounterOutE2M [31:0] $end
$var wire 1 / StallF $end
$var wire 1 0 StallD $end
$var wire 5 1 Rs2E2FU [4:0] $end
$var wire 5 2 Rs2E [4:0] $end
$var wire 5 3 Rs2D2HDU [4:0] $end
$var wire 5 4 Rs2D2E [4:0] $end
$var wire 5 5 Rs2D2CHU [4:0] $end
$var wire 5 6 Rs1E2FU [4:0] $end
$var wire 5 7 Rs1E [4:0] $end
$var wire 5 8 Rs1D2HDU [4:0] $end
$var wire 5 9 Rs1D2E [4:0] $end
$var wire 5 : Rs1D2CHU [4:0] $end
$var wire 32 ; ResultOutfromWB [31:0] $end
$var wire 1 < RegWriteW2FU $end
$var wire 1 = RegWriteW2CHU $end
$var wire 1 > RegWriteW $end
$var wire 1 ? RegWriteM2W $end
$var wire 1 @ RegWriteM2FU $end
$var wire 1 A RegWriteM2CHU $end
$var wire 1 B RegWriteM $end
$var wire 1 C RegWriteE2M $end
$var wire 1 D RegWriteE2CHU $end
$var wire 1 E RegWriteE $end
$var wire 1 F RegWriteD2E $end
$var wire 1 G RegWrite $end
$var wire 32 H RegInData [31:0] $end
$var wire 32 I ReadOut2E [31:0] $end
$var wire 32 J ReadOut2D2E [31:0] $end
$var wire 32 K ReadOut2D2CHU [31:0] $end
$var wire 32 L ReadOut1E [31:0] $end
$var wire 32 M ReadOut1D2E [31:0] $end
$var wire 32 N ReadOut1D2CHU [31:0] $end
$var wire 5 O RdW2CHU [4:0] $end
$var wire 5 P RdM2CHU [4:0] $end
$var wire 5 Q RdE2HDU [4:0] $end
$var wire 5 R RdE2CHU [4:0] $end
$var wire 1 S PC_Updated_Select $end
$var wire 32 T PC_Updated_CHU [31:0] $end
$var wire 1 U PCSelectE $end
$var wire 1 V PCSelectD2E $end
$var wire 32 W PCPlusImmM [31:0] $end
$var wire 32 X PCPlusImmE2M [31:0] $end
$var wire 32 Y PCPlusImm [31:0] $end
$var wire 32 Z PCF2D [31:0] $end
$var wire 32 [ PCE [31:0] $end
$var wire 32 \ PCD2E [31:0] $end
$var wire 32 ] PCD2CHU [31:0] $end
$var wire 32 ^ PCD [31:0] $end
$var wire 32 _ MuxOutW2CHU [31:0] $end
$var wire 1 ` MemWriteM $end
$var wire 1 a MemWriteE2M $end
$var wire 1 b MemWriteE $end
$var wire 1 c MemWriteD2E $end
$var wire 1 d MemReadW $end
$var wire 1 e MemReadM2W $end
$var wire 1 f MemReadM $end
$var wire 1 g MemReadE2M $end
$var wire 1 h MemReadE2HDU $end
$var wire 1 i MemReadE $end
$var wire 1 j MemReadD2E $end
$var wire 1 k JtypeW $end
$var wire 1 l JtypeM2W $end
$var wire 1 m JtypeM $end
$var wire 1 n JtypeE2M $end
$var wire 1 o JtypeE $end
$var wire 1 p JtypeD2E $end
$var wire 1 q Jtype $end
$var wire 32 r InstrF2D [31:0] $end
$var wire 32 s InstrD [31:0] $end
$var wire 1 t ImmSelectE $end
$var wire 1 u ImmSelectD2E $end
$var wire 32 v ImmGenOutE [31:0] $end
$var wire 32 w ImmGenOutD2E [31:0] $end
$var wire 32 x ImmGenOutD2CHU [31:0] $end
$var wire 2 y ForwardBE [1:0] $end
$var wire 2 z ForwardAE [1:0] $end
$var wire 1 { FlushE $end
$var wire 1 | FlushD2CHU $end
$var wire 32 } DataMemOutW [31:0] $end
$var wire 32 ~ DataMemOutM2W [31:0] $end
$var wire 1 !" BranchE2M $end
$var wire 1 "" Branch $end
$var wire 6 #" ALUSelectW [5:0] $end
$var wire 6 $" ALUSelectM2W [5:0] $end
$var wire 6 %" ALUSelectM [5:0] $end
$var wire 6 &" ALUSelectE2M [5:0] $end
$var wire 6 '" ALUSelectE [5:0] $end
$var wire 6 (" ALUSelectD2E [5:0] $end
$var wire 6 )" ALUSelectD2CHU [5:0] $end
$var wire 32 *" ALUOutfromM [31:0] $end
$var wire 32 +" ALUOutW [31:0] $end
$var wire 32 ," ALUOutM2W [31:0] $end
$var wire 32 -" ALUOutM2CHU [31:0] $end
$var wire 32 ." ALUOutM [31:0] $end
$var wire 32 /" ALUOutE2M [31:0] $end
$var wire 32 0" ALUOutE2CHU [31:0] $end
$var wire 32 1" ALUOut [31:0] $end
$scope module CHU_Imp $end
$var wire 1 " reset $end
$var wire 32 2" rs2 [31:0] $end
$var wire 32 3" rs1 [31:0] $end
$var wire 32 4" pc [31:0] $end
$var wire 32 5" imm [31:0] $end
$var wire 6 6" aluSelect [5:0] $end
$var wire 5 7" Rs2address [4:0] $end
$var wire 32 8" Rs2_forwarded [31:0] $end
$var wire 5 9" Rs1address [4:0] $end
$var wire 32 :" Rs1_forwarded [31:0] $end
$var wire 1 = RegWriteW $end
$var wire 1 A RegWriteM $end
$var wire 1 D RegWriteE $end
$var wire 5 ;" RdWAddress [4:0] $end
$var wire 5 <" RdMAddress [4:0] $end
$var wire 5 =" RdEAddress [4:0] $end
$var wire 32 >" MuxOutW [31:0] $end
$var wire 32 ?" ALUOutM [31:0] $end
$var wire 32 @" ALUOutE [31:0] $end
$var reg 1 | FlushD $end
$var reg 32 A" target_pc [31:0] $end
$var reg 1 S target_pc_valid $end
$upscope $end
$scope module EX_MEM_Register_Inst $end
$var wire 1 # BranchM $end
$var wire 1 ! clk $end
$var wire 1 " reset $end
$var wire 5 B" WriteAddressM [4:0] $end
$var wire 32 C" StoreCounterOutM [31:0] $end
$var wire 1 B RegWriteM $end
$var wire 32 D" PCPlusImmM [31:0] $end
$var wire 1 ` MemWriteM $end
$var wire 1 f MemReadM $end
$var wire 1 m JtypeM $end
$var wire 6 E" ALUSelectM [5:0] $end
$var wire 32 F" ALUOutM [31:0] $end
$var reg 32 G" ALUOutE2M [31:0] $end
$var reg 6 H" ALUSelectE2M [5:0] $end
$var reg 1 !" BranchE2M $end
$var reg 1 n JtypeE2M $end
$var reg 1 g MemReadE2M $end
$var reg 1 a MemWriteE2M $end
$var reg 32 I" PCPlusImmE2M [31:0] $end
$var reg 1 C RegWriteE2M $end
$var reg 32 J" StoreCounterOutE2M [31:0] $end
$var reg 5 K" WriteAddressE2M [4:0] $end
$upscope $end
$scope module FU $end
$var wire 1 " reset $end
$var wire 5 L" Rs2_E [4:0] $end
$var wire 5 M" Rs1_E [4:0] $end
$var wire 1 < RegWriteW $end
$var wire 1 @ RegWriteM $end
$var wire 5 N" RD_W [4:0] $end
$var wire 5 O" RD_M [4:0] $end
$var wire 2 P" ForwardBE [1:0] $end
$var wire 2 Q" ForwardAE [1:0] $end
$upscope $end
$scope module HDU_Imp $end
$var wire 1 { FlushE $end
$var wire 1 0 StallD $end
$var wire 1 / StallF $end
$var wire 1 R" hazard_detected $end
$var wire 5 S" Rs2D2HDU [4:0] $end
$var wire 5 T" Rs1D2HDU [4:0] $end
$var wire 5 U" RdE2HDU [4:0] $end
$var wire 1 h MemReadE2HDU $end
$upscope $end
$scope module ID_EX_Register_Inst $end
$var wire 1 ! clk $end
$var wire 1 " reset $end
$var wire 5 V" WriteAddressE [4:0] $end
$var wire 5 W" Rs2E [4:0] $end
$var wire 5 X" Rs1E [4:0] $end
$var wire 1 E RegWriteE $end
$var wire 32 Y" ReadOut2E [31:0] $end
$var wire 32 Z" ReadOut1E [31:0] $end
$var wire 1 U PCSelectE $end
$var wire 32 [" PCE [31:0] $end
$var wire 1 b MemWriteE $end
$var wire 1 i MemReadE $end
$var wire 1 o JtypeE $end
$var wire 1 t ImmSelectE $end
$var wire 32 \" ImmGenOutE [31:0] $end
$var wire 6 ]" ALUSelectE [5:0] $end
$var reg 6 ^" ALUSelectD2E [5:0] $end
$var reg 32 _" ImmGenOutD2E [31:0] $end
$var reg 1 u ImmSelectD2E $end
$var reg 1 p JtypeD2E $end
$var reg 1 j MemReadD2E $end
$var reg 1 c MemWriteD2E $end
$var reg 32 `" PCD2E [31:0] $end
$var reg 1 V PCSelectD2E $end
$var reg 32 a" ReadOut1D2E [31:0] $end
$var reg 32 b" ReadOut2D2E [31:0] $end
$var reg 1 F RegWriteD2E $end
$var reg 5 c" Rs1D2E [4:0] $end
$var reg 5 d" Rs2D2E [4:0] $end
$var reg 5 e" WriteAddressD2E [4:0] $end
$upscope $end
$scope module IF_ID_Register_Inst $end
$var wire 1 | FlushD_CHU $end
$var wire 1 0 StallD_HDU $end
$var wire 1 ! clk $end
$var wire 1 " reset $end
$var wire 32 f" PCD [31:0] $end
$var wire 32 g" InstrD [31:0] $end
$var reg 32 h" InstrF2D [31:0] $end
$var reg 32 i" PCF2D [31:0] $end
$upscope $end
$scope module MEM_WB_Register_Inst $end
$var wire 1 ! clk $end
$var wire 1 " reset $end
$var wire 5 j" WriteAddressW [4:0] $end
$var wire 1 > RegWriteW $end
$var wire 1 d MemReadW $end
$var wire 1 k JtypeW $end
$var wire 32 k" DataMemOutW [31:0] $end
$var wire 6 l" ALUSelectW [5:0] $end
$var wire 32 m" ALUOutW [31:0] $end
$var reg 32 n" ALUOutM2W [31:0] $end
$var reg 6 o" ALUSelectM2W [5:0] $end
$var reg 32 p" DataMemOutM2W [31:0] $end
$var reg 1 l JtypeM2W $end
$var reg 1 e MemReadM2W $end
$var reg 1 ? RegWriteM2W $end
$var reg 5 q" WriteAddressM2W [4:0] $end
$upscope $end
$scope module Mem_cycle_Imp $end
$var wire 32 r" ALUOut2CHU [31:0] $end
$var wire 32 s" ALUOut2E [31:0] $end
$var wire 32 t" ALUOutE [31:0] $end
$var wire 32 u" ALUOutF [31:0] $end
$var wire 32 v" ALUOutW [31:0] $end
$var wire 6 w" ALUSelectE [5:0] $end
$var wire 6 x" ALUSelectW [5:0] $end
$var wire 1 !" BranchE $end
$var wire 1 "" BranchF $end
$var wire 1 n JtypeE $end
$var wire 1 q JtypeF $end
$var wire 1 k JtypeW $end
$var wire 1 g MemReadE $end
$var wire 1 d MemReadW $end
$var wire 1 a MemWriteE $end
$var wire 32 y" PCPlusImmE [31:0] $end
$var wire 32 z" PCPlusImmF [31:0] $end
$var wire 5 {" RdEAddressCHU [4:0] $end
$var wire 1 A RegWrite2CHU $end
$var wire 1 @ RegWrite2FU $end
$var wire 1 C RegWriteE $end
$var wire 1 > RegWriteW $end
$var wire 32 |" StoreConverterE [31:0] $end
$var wire 5 }" WriteAddress2FU [4:0] $end
$var wire 5 ~" WriteAddressE [4:0] $end
$var wire 5 !# WriteAddressW [4:0] $end
$var wire 1 ! clk $end
$var wire 1 " reset $end
$var wire 32 "# DataMemOutW [31:0] $end
$scope module DataMemoryMem $end
$var wire 1 g MemRead $end
$var wire 1 a MemWrite $end
$var wire 32 ## Write_data [31:0] $end
$var wire 1 ! clk $end
$var wire 32 $# read_address [31:0] $end
$var wire 1 " reset $end
$var wire 32 %# MemData_out [31:0] $end
$scope begin $ivl_for_loop0 $end
$var integer 32 &# k [31:0] $end
$upscope $end
$upscope $end
$upscope $end
$scope module decode_cycle_Imp $end
$var wire 6 '# ALUSelectCHU [5:0] $end
$var wire 1 { FlushE $end
$var wire 32 (# ImmCHU [31:0] $end
$var wire 32 )# PCCHU [31:0] $end
$var wire 32 *# PCE [31:0] $end
$var wire 32 +# PCF [31:0] $end
$var wire 32 ,# ReadData1CHU [31:0] $end
$var wire 32 -# ReadData2CHU [31:0] $end
$var wire 1 ! clk $end
$var wire 32 .# instructionF [31:0] $end
$var wire 1 " reset $end
$var wire 32 /# writeDataW [31:0] $end
$var wire 5 0# WriteAddressW [4:0] $end
$var wire 5 1# WriteAddressE [4:0] $end
$var wire 5 2# Rs2E [4:0] $end
$var wire 5 3# Rs2D2HDU [4:0] $end
$var wire 5 4# Rs2D2CHU [4:0] $end
$var wire 5 5# Rs1E [4:0] $end
$var wire 5 6# Rs1D2HDU [4:0] $end
$var wire 5 7# Rs1D2CHU [4:0] $end
$var wire 1 G RegWriteW $end
$var wire 1 E RegWriteE $end
$var wire 1 8# RegWriteD $end
$var wire 32 9# ReadOut2E [31:0] $end
$var wire 32 :# ReadOut1E [31:0] $end
$var wire 1 U PCSelectE $end
$var wire 1 ;# PCSelectD $end
$var wire 1 b MemWriteE $end
$var wire 1 <# MemWriteD $end
$var wire 1 i MemReadE $end
$var wire 1 =# MemReadD $end
$var wire 1 o JtypeE $end
$var wire 1 ># JtypeD $end
$var wire 1 t ImmSelectE $end
$var wire 1 ?# ImmSelectD $end
$var wire 32 @# ImmGenOutE [31:0] $end
$var wire 6 A# ALUSelectE [5:0] $end
$var wire 6 B# ALUSelectD [5:0] $end
$scope module ControlUnitD $end
$var wire 32 C# instruction [31:0] $end
$var wire 7 D# opcode [6:0] $end
$var wire 7 E# funct7 [6:0] $end
$var wire 3 F# funct3 [2:0] $end
$var reg 1 ?# ImmSelect $end
$var reg 1 ># Jtype $end
$var reg 1 =# MemRead $end
$var reg 1 <# MemWrite $end
$var reg 1 ;# PCSelect $end
$var reg 6 G# aluSelect [5:0] $end
$var reg 1 8# regWrite $end
$upscope $end
$scope module ImmGen_D $end
$var wire 32 H# instr [31:0] $end
$var wire 7 I# opcode [6:0] $end
$var reg 32 J# immOut [31:0] $end
$upscope $end
$scope module Masking_Mux_CU_Imp $end
$var wire 6 K# ALUSelect [5:0] $end
$var wire 1 { FlushE $end
$var wire 1 ?# ImmSelect $end
$var wire 1 ># Jtype $end
$var wire 1 =# MemRead $end
$var wire 1 <# MemWrite $end
$var wire 1 ;# PCSelect $end
$var wire 1 8# RegWrite $end
$var wire 1 E RegWriteMasked $end
$var wire 1 U PCSelectMasked $end
$var wire 1 b MemWriteMasked $end
$var wire 1 i MemReadMasked $end
$var wire 1 o JtypeMasked $end
$var wire 1 t ImmSelectMasked $end
$var wire 6 L# ALUSelectMasked [5:0] $end
$upscope $end
$scope module Reg_File_D $end
$var wire 5 M# Rs1 [4:0] $end
$var wire 5 N# Rs2 [4:0] $end
$var wire 1 ! clk $end
$var wire 1 " reset $end
$var wire 32 O# read_data2 [31:0] $end
$var wire 32 P# read_data1 [31:0] $end
$var wire 32 Q# Write_data [31:0] $end
$var wire 1 G RegWrite $end
$var wire 5 R# Rd [4:0] $end
$var integer 32 S# i [31:0] $end
$upscope $end
$upscope $end
$scope module execution_cycle_Imp $end
$var wire 32 T# ALUOutE2CHU [31:0] $end
$var wire 32 U# ALUOutfromM [31:0] $end
$var wire 6 V# ALUSelectD [5:0] $end
$var wire 6 W# ALUSelectM [5:0] $end
$var wire 2 X# ForwardAE [1:0] $end
$var wire 2 Y# ForwardBE [1:0] $end
$var wire 32 Z# ImmGenOutD [31:0] $end
$var wire 1 u ImmSelectD $end
$var wire 1 p JtypeD $end
$var wire 1 m JtypeM $end
$var wire 1 j MemReadD $end
$var wire 1 h MemReadE2HDU $end
$var wire 1 f MemReadM $end
$var wire 1 c MemWriteD $end
$var wire 1 ` MemWriteM $end
$var wire 32 [# PCD [31:0] $end
$var wire 1 V PCSelectD $end
$var wire 5 \# RdE2HDU [4:0] $end
$var wire 5 ]# RdEAddressCHU [4:0] $end
$var wire 32 ^# RegOut1D [31:0] $end
$var wire 32 _# RegOut2D [31:0] $end
$var wire 1 D RegWrite2CHU $end
$var wire 1 F RegWriteD $end
$var wire 1 B RegWriteM $end
$var wire 5 `# Rs1D [4:0] $end
$var wire 5 a# Rs1FU [4:0] $end
$var wire 5 b# Rs2D [4:0] $end
$var wire 5 c# Rs2FU [4:0] $end
$var wire 5 d# WriteAddressD [4:0] $end
$var wire 5 e# WriteAddressM [4:0] $end
$var wire 32 f# StoreCounterOutM [31:0] $end
$var wire 32 g# ResultOutfromWB [31:0] $end
$var wire 32 h# RegOut2Fwd [31:0] $end
$var wire 32 i# RegOut1Fwd [31:0] $end
$var wire 32 j# PCPlusImmM [31:0] $end
$var wire 32 k# Mux2EdashOut [31:0] $end
$var wire 32 l# Mux1outE [31:0] $end
$var wire 32 m# ALUOutM [31:0] $end
$scope module ALUE $end
$var wire 6 n# aluSelect [5:0] $end
$var wire 32 o# utype_result [31:0] $end
$var wire 32 p# rtype_result [31:0] $end
$var wire 32 q# rs2 [31:0] $end
$var wire 32 r# rs1 [31:0] $end
$var wire 32 s# muldiv_result [31:0] $end
$var wire 32 t# loadstore_result [31:0] $end
$var wire 32 u# jtype_result [31:0] $end
$var reg 32 v# result [31:0] $end
$scope module jtype_inst $end
$var wire 6 w# aluSelect [5:0] $end
$var wire 32 x# pc [31:0] $end
$var wire 32 y# imm [31:0] $end
$var reg 32 z# next_pc [31:0] $end
$upscope $end
$scope module loadstore $end
$var wire 6 {# aluSelect [5:0] $end
$var wire 32 |# rs1 [31:0] $end
$var wire 32 }# imm [31:0] $end
$var reg 32 ~# address [31:0] $end
$upscope $end
$scope module muldiv_inst $end
$var wire 6 !$ aluSelect [5:0] $end
$var wire 64 "$ unsigned_product [63:0] $end
$var wire 64 #$ signed_product1 [63:0] $end
$var wire 64 $$ signed_product [63:0] $end
$var wire 32 %$ rs2 [31:0] $end
$var wire 32 &$ rs1 [31:0] $end
$var reg 32 '$ result [31:0] $end
$upscope $end
$scope module rtype $end
$var wire 6 ($ aluSelect [5:0] $end
$var wire 32 )$ b [31:0] $end
$var wire 32 *$ a [31:0] $end
$var reg 32 +$ result [31:0] $end
$upscope $end
$scope module utype $end
$var wire 6 ,$ aluSelect [5:0] $end
$var wire 32 -$ pc [31:0] $end
$var wire 32 .$ imm_u [31:0] $end
$var reg 32 /$ result [31:0] $end
$upscope $end
$upscope $end
$scope module AdderE $end
$var wire 32 0$ in_1 [31:0] $end
$var wire 32 1$ in_2 [31:0] $end
$var wire 32 2$ Sum_out [31:0] $end
$upscope $end
$scope module Mux1E $end
$var wire 32 3$ A [31:0] $end
$var wire 1 V select $end
$var wire 32 4$ Mux_out [31:0] $end
$var wire 32 5$ B [31:0] $end
$upscope $end
$scope module Mux2E $end
$var wire 32 6$ A [31:0] $end
$var wire 1 u select $end
$var wire 32 7$ Mux_out [31:0] $end
$var wire 32 8$ B [31:0] $end
$upscope $end
$scope module Mux_Reg1Fwd $end
$var wire 32 9$ in1 [31:0] $end
$var wire 32 :$ in3 [31:0] $end
$var wire 2 ;$ select [1:0] $end
$var wire 32 <$ out [31:0] $end
$var wire 32 =$ in2 [31:0] $end
$upscope $end
$scope module Mux_Reg2Fwd $end
$var wire 32 >$ in1 [31:0] $end
$var wire 32 ?$ in3 [31:0] $end
$var wire 2 @$ select [1:0] $end
$var wire 32 A$ out [31:0] $end
$var wire 32 B$ in2 [31:0] $end
$upscope $end
$scope module StoreConverterE $end
$var wire 6 C$ aluSelect [5:0] $end
$var wire 32 D$ inputData [31:0] $end
$var reg 32 E$ outputData [31:0] $end
$upscope $end
$upscope $end
$scope module fetch_cycle_Imp $end
$var wire 32 F$ InstrD [31:0] $end
$var wire 32 G$ PCD [31:0] $end
$var wire 32 H$ PC_Updated_CHU [31:0] $end
$var wire 1 S PC_Updated_Select $end
$var wire 1 / StallF $end
$var wire 1 ! clk $end
$var wire 1 " reset $end
$var wire 32 I$ PCPlus4F [31:0] $end
$var wire 32 J$ PCOutF [31:0] $end
$var wire 32 K$ PCInF [31:0] $end
$var wire 32 L$ InstrF [31:0] $end
$scope module BranchEMux $end
$var wire 32 M$ A [31:0] $end
$var wire 1 S select $end
$var wire 32 N$ Mux_out [31:0] $end
$var wire 32 O$ B [31:0] $end
$upscope $end
$scope module Instr_Mem $end
$var wire 1 ! clk $end
$var wire 1 " reset $end
$var wire 32 P$ read_address [31:0] $end
$var reg 32 Q$ instruction_out [31:0] $end
$upscope $end
$scope module PCPlus4 $end
$var wire 32 R$ in_2 [31:0] $end
$var wire 32 S$ in_1 [31:0] $end
$var wire 32 T$ Sum_out [31:0] $end
$upscope $end
$scope module Program_Counter_Fetch $end
$var wire 32 U$ PC_in [31:0] $end
$var wire 1 / StallF $end
$var wire 1 ! clk $end
$var wire 1 " reset $end
$var reg 32 V$ PC_out [31:0] $end
$upscope $end
$upscope $end
$scope module writeBack_cycle_Imp $end
$var wire 32 W$ ALUOutM [31:0] $end
$var wire 6 X$ ALUSelectM [5:0] $end
$var wire 32 Y$ DataMemOutM [31:0] $end
$var wire 1 l JtypeM $end
$var wire 32 Z$ MemOut2CHU [31:0] $end
$var wire 1 e MemReadM $end
$var wire 1 = RegWrite2CHU $end
$var wire 1 < RegWrite2FU $end
$var wire 1 G RegWriteD $end
$var wire 1 ? RegWriteM $end
$var wire 32 [$ ResultOut2E [31:0] $end
$var wire 5 \$ WriteAddress2CHU [4:0] $end
$var wire 5 ]$ WriteAddress2FU [4:0] $end
$var wire 5 ^$ WriteAddressD [4:0] $end
$var wire 5 _$ WriteAddressM [4:0] $end
$var wire 32 `$ RegInDataD [31:0] $end
$var wire 32 a$ LoadConverterDataW [31:0] $end
$var wire 32 b$ Load2AdderW [31:0] $end
$var wire 32 c$ Adder2Mux [31:0] $end
$scope module AdderW $end
$var wire 32 d$ in_2 [31:0] $end
$var wire 32 e$ in_1 [31:0] $end
$var wire 32 f$ Sum_out [31:0] $end
$upscope $end
$scope module LoadConverterW $end
$var wire 6 g$ aluSelect [5:0] $end
$var wire 32 h$ inputData [31:0] $end
$var reg 32 i$ outputData [31:0] $end
$upscope $end
$scope module Mux1 $end
$var wire 32 j$ A [31:0] $end
$var wire 32 k$ B [31:0] $end
$var wire 1 e select $end
$var wire 32 l$ Mux_out [31:0] $end
$upscope $end
$scope module Mux2 $end
$var wire 32 m$ A [31:0] $end
$var wire 32 n$ B [31:0] $end
$var wire 1 l select $end
$var wire 32 o$ Mux_out [31:0] $end
$upscope $end
$upscope $end
$upscope $end
$scope task display_state $end
$var integer 32 p$ i [31:0] $end
$upscope $end
$upscope $end
$enddefinitions $end
#0
$dumpvars
bx p$
b0 o$
b0 n$
b100 m$
b0 l$
b0 k$
b0 j$
b0 i$
b0 h$
b0 g$
b100 f$
b0 e$
b100 d$
b100 c$
b0 b$
b0 a$
b0 `$
b0 _$
b0 ^$
b0 ]$
b0 \$
b0 [$
b0 Z$
b0 Y$
b0 X$
b0 W$
b0 V$
b100 U$
b100 T$
b0 S$
b100 R$
b0 Q$
b0 P$
b100 O$
b100 N$
b0 M$
b0 L$
b100 K$
b0 J$
b100 I$
b0 H$
b0 G$
b0 F$
b0 E$
b0 D$
b0 C$
b0 B$
b0 A$
b0 @$
b0 ?$
b0 >$
b0 =$
b0 <$
b0 ;$
b0 :$
b0 9$
b0 8$
b0 7$
b0 6$
b0 5$
b0 4$
b0 3$
b0 2$
b0 1$
b0 0$
b0 /$
b0 .$
b0 -$
b0 ,$
b0 +$
b0 *$
b0 )$
b0 ($
b0 '$
b0 &$
b0 %$
b0 $$
b0 #$
b0 "$
b0 !$
b0 ~#
b0 }#
b0 |#
b0 {#
b0 z#
b0 y#
b0 x#
b0 w#
b0 v#
b0 u#
b0 t#
b0 s#
b0 r#
b0 q#
b0 p#
b0 o#
b0 n#
b0 m#
b0 l#
b0 k#
b0 j#
b0 i#
b0 h#
b0 g#
b0 f#
b0 e#
b0 d#
b0 c#
b0 b#
b0 a#
b0 `#
b0 _#
b0 ^#
b0 ]#
b0 \#
b0 [#
b0 Z#
b0 Y#
b0 X#
b0 W#
b0 V#
b0 U#
b0 T#
b100000 S#
b0 R#
b0 Q#
b0 P#
b0 O#
b0 N#
b0 M#
b0 L#
b0 K#
b0 J#
b0 I#
b0 H#
b0 G#
b0 F#
b0 E#
b0 D#
b0 C#
b0 B#
b0 A#
b0 @#
0?#
0>#
0=#
0<#
0;#
b0 :#
b0 9#
08#
b0 7#
b0 6#
b0 5#
b0 4#
b0 3#
b0 2#
b0 1#
b0 0#
b0 /#
b0 .#
b0 -#
b0 ,#
b0 +#
b0 *#
b0 )#
b0 (#
b0 '#
b1000000 &#
b0 %#
b0 $#
b0 ##
b0 "#
b0 !#
b0 ~"
b0 }"
b0 |"
b0 {"
b0 z"
b0 y"
b0 x"
b0 w"
b0 v"
b0 u"
b0 t"
b0 s"
b0 r"
b0 q"
b0 p"
b0 o"
b0 n"
b0 m"
b0 l"
b0 k"
b0 j"
b0 i"
b0 h"
b0 g"
b0 f"
b0 e"
b0 d"
b0 c"
b0 b"
b0 a"
b0 `"
b0 _"
b0 ^"
b0 ]"
b0 \"
b0 ["
b0 Z"
b0 Y"
b0 X"
b0 W"
b0 V"
b0 U"
b0 T"
b0 S"
0R"
b0 Q"
b0 P"
b0 O"
b0 N"
b0 M"
b0 L"
b0 K"
b0 J"
b0 I"
b0 H"
b0 G"
b0 F"
b0 E"
b0 D"
b0 C"
b0 B"
b0 A"
b0 @"
b0 ?"
b0 >"
b0 ="
b0 <"
b0 ;"
b0 :"
b0 9"
b0 8"
b0 7"
b0 6"
b0 5"
b0 4"
b0 3"
b0 2"
b0 1"
b0 0"
b0 /"
b0 ."
b0 -"
b0 ,"
b0 +"
b0 *"
b0 )"
b0 ("
b0 '"
b0 &"
b0 %"
b0 $"
b0 #"
0""
0!"
b0 ~
b0 }
0|
0{
b0 z
b0 y
b0 x
b0 w
b0 v
0u
0t
b0 s
b0 r
0q
0p
0o
0n
0m
0l
0k
0j
0i
0h
0g
0f
0e
0d
0c
0b
0a
0`
b0 _
b0 ^
b0 ]
b0 \
b0 [
b0 Z
b0 Y
b0 X
b0 W
0V
0U
b0 T
0S
b0 R
b0 Q
b0 P
b0 O
b0 N
b0 M
b0 L
b0 K
b0 J
b0 I
b0 H
0G
0F
0E
0D
0C
0B
0A
0@
0?
0>
0=
0<
b0 ;
b0 :
b0 9
b0 8
b0 7
b0 6
b0 5
b0 4
b0 3
b0 2
b0 1
00
0/
b0 .
b0 -
b0 ,
b0 +
b0 *
b0 )
b0 (
b0 '
b0 &
b0 %
b0 $
z#
1"
0!
$end
#5000
b1000000 &#
b100000 S#
1!
#10000
0!
#15000
b1000000 &#
b100000 S#
1!
#20000
b10100000000000010010011 s
b10100000000000010010011 g"
b10100000000000010010011 F$
b10100000000000010010011 L$
b10100000000000010010011 Q$
0!
0"
#25000
b10011 '"
b10011 ]"
b10011 A#
b10011 L#
1E
1t
b1 *
b1 V"
b1 1#
b101 2
b101 W"
b101 2#
b101 3
b101 S"
b101 3#
b101 5
b101 7"
b101 4#
b101 N#
b10011 )"
b10011 6"
b10011 '#
b10011 B#
b10011 G#
b10011 K#
18#
1?#
b10011 D#
b101 x
b101 5"
b101 (#
b101 v
b101 \"
b101 @#
b101 J#
b10011 I#
b1000 K$
b1000 N$
b1000 U$
b10100000000000010010011 r
b10100000000000010010011 h"
b10100000000000010010011 .#
b10100000000000010010011 C#
b10100000000000010010011 H#
z""
z!"
b1000 I$
b1000 O$
b1000 T$
b100 ^
b100 f"
b100 G$
b100 J$
b100 P$
b100 S$
b100 V$
b1000000 p$
1!
#30000
b10100000000000100010011 s
b10100000000000100010011 g"
b10100000000000100010011 F$
b10100000000000100010011 L$
b10100000000000100010011 Q$
0!
#35000
b101 0"
b101 @"
b101 T#
b101 ."
b101 F"
b101 m#
b101 v#
b101 p#
b101 +$
b101 k#
b101 q#
b101 y#
b101 }#
b101 %$
b101 )$
b101 .$
b101 7$
b1100 K$
b1100 N$
b1100 U$
b10 *
b10 V"
b10 1#
18#
1?#
b10011 )"
b10011 6"
b10011 '#
b10011 B#
b10011 G#
b10011 K#
b1100 I$
b1100 O$
b1100 T$
b1000 ^
b1000 f"
b1000 G$
b1000 J$
b1000 P$
b1000 S$
b1000 V$
b101 1
b101 L"
b101 c#
b101 4
b101 d"
b101 b#
b101 W
b101 D"
b101 j#
b101 2$
b101 w
b101 _"
b101 Z#
b101 1$
b101 6$
1u
b10011 %"
b10011 E"
b10011 W#
b10011 ("
b10011 ^"
b10011 V#
b10011 n#
b10011 w#
b10011 {#
b10011 !$
b10011 ($
b10011 ,$
b10011 C$
1D
1B
1F
b1 R
b1 ="
b1 ]#
b1 (
b1 B"
b1 e#
b1 Q
b1 U"
b1 \#
b1 +
b1 e"
b1 d#
b10100000000000100010011 r
b10100000000000100010011 h"
b10100000000000100010011 .#
b10100000000000100010011 C#
b10100000000000100010011 H#
b100 [
b100 ["
b100 *#
b100 ]
b100 4"
b100 )#
b100 Z
b100 i"
b100 +#
b1000000 p$
1!
#40000
b1000001000011001100011 s
b1000001000011001100011 g"
b1000001000011001100011 F$
b1000001000011001100011 L$
b1000001000011001100011 Q$
0!
