Hazard Handled with Forwarding Unit and Hazard Handling Unit/top_cpu.vcd
$date
	Mon Jul  7 09:55:53 2025
$end
$version
	Icarus Verilog
$end
$timescale
	1ps
$end
$scope module top_cpu_tb $end
$var reg 1 ! clk $end
$var reg 1 " reset $end
$scope module uut $end
$var wire 1 ! clk $end
$var wire 1 " reset $end
$var wire 5 # WriteAddressW2FU [4:0] $end
$var wire 5 $ WriteAddressW [4:0] $end
$var wire 5 % WriteAddressM2W [4:0] $end
$var wire 5 & WriteAddressM2FU [4:0] $end
$var wire 5 ' WriteAddressM [4:0] $end
$var wire 5 ( WriteAddressE2M [4:0] $end
$var wire 5 ) WriteAddressE [4:0] $end
$var wire 5 * WriteAddressD2E [4:0] $end
$var wire 5 + WriteAddress [4:0] $end
$var wire 32 , StoreCounterOutM [31:0] $end
$var wire 32 - StoreCounterOutE2M [31:0] $end
$var wire 1 . StallF $end
$var wire 1 / StallD $end
$var wire 5 0 Rs2E2FU [4:0] $end
$var wire 5 1 Rs2E [4:0] $end
$var wire 5 2 Rs2D2HDU [4:0] $end
$var wire 5 3 Rs2D2E [4:0] $end
$var wire 5 4 Rs1E2FU [4:0] $end
$var wire 5 5 Rs1E [4:0] $end
$var wire 5 6 Rs1D2HDU [4:0] $end
$var wire 5 7 Rs1D2E [4:0] $end
$var wire 32 8 ResultOutfromWB [31:0] $end
$var wire 1 9 RegWriteW2FU $end
$var wire 1 : RegWriteW $end
$var wire 1 ; RegWriteM2W $end
$var wire 1 < RegWriteM2FU $end
$var wire 1 = RegWriteM $end
$var wire 1 > RegWriteE2M $end
$var wire 1 ? RegWriteE $end
$var wire 1 @ RegWriteD2E $end
$var wire 1 A RegWrite $end
$var wire 32 B RegInData [31:0] $end
$var wire 32 C ReadOut2E [31:0] $end
$var wire 32 D ReadOut2D2E [31:0] $end
$var wire 32 E ReadOut1E [31:0] $end
$var wire 32 F ReadOut1D2E [31:0] $end
$var wire 5 G RdE2HDU [4:0] $end
$var wire 1 H PCSelectE $end
$var wire 1 I PCSelectD2E $end
$var wire 32 J PCPlusImmM [31:0] $end
$var wire 32 K PCPlusImmE2M [31:0] $end
$var wire 32 L PCPlusImm [31:0] $end
$var wire 32 M PCF2D [31:0] $end
$var wire 32 N PCE [31:0] $end
$var wire 32 O PCD2E [31:0] $end
$var wire 32 P PCD [31:0] $end
$var wire 1 Q MemWriteM $end
$var wire 1 R MemWriteE2M $end
$var wire 1 S MemWriteE $end
$var wire 1 T MemWriteD2E $end
$var wire 1 U MemReadW $end
$var wire 1 V MemReadM2W $end
$var wire 1 W MemReadM $end
$var wire 1 X MemReadE2M $end
$var wire 1 Y MemReadE2HDU $end
$var wire 1 Z MemReadE $end
$var wire 1 [ MemReadD2E $end
$var wire 1 \ JtypeW $end
$var wire 1 ] JtypeM2W $end
$var wire 1 ^ JtypeM $end
$var wire 1 _ JtypeE2M $end
$var wire 1 ` JtypeE $end
$var wire 1 a JtypeD2E $end
$var wire 1 b Jtype $end
$var wire 32 c InstrF2D [31:0] $end
$var wire 32 d InstrD [31:0] $end
$var wire 1 e ImmSelectE $end
$var wire 1 f ImmSelectD2E $end
$var wire 32 g ImmGenOutE [31:0] $end
$var wire 32 h ImmGenOutD2E [31:0] $end
$var wire 2 i ForwardBE [1:0] $end
$var wire 2 j ForwardAE [1:0] $end
$var wire 1 k FlushE $end
$var wire 32 l DataMemOutW [31:0] $end
$var wire 32 m DataMemOutM2W [31:0] $end
$var wire 1 n BranchM $end
$var wire 1 o BranchE2M $end
$var wire 1 p Branch $end
$var wire 6 q ALUSelectW [5:0] $end
$var wire 6 r ALUSelectM2W [5:0] $end
$var wire 6 s ALUSelectM [5:0] $end
$var wire 6 t ALUSelectE2M [5:0] $end
$var wire 6 u ALUSelectE [5:0] $end
$var wire 6 v ALUSelectD2E [5:0] $end
$var wire 32 w ALUOutfromM [31:0] $end
$var wire 32 x ALUOutW [31:0] $end
$var wire 32 y ALUOutM2W [31:0] $end
$var wire 32 z ALUOutM [31:0] $end
$var wire 32 { ALUOutE2M [31:0] $end
$var wire 32 | ALUOut [31:0] $end
$scope module EX_MEM_Register_Inst $end
$var wire 1 ! clk $end
$var wire 1 " reset $end
$var wire 5 } WriteAddressM [4:0] $end
$var wire 32 ~ StoreCounterOutM [31:0] $end
$var wire 1 = RegWriteM $end
$var wire 32 !" PCPlusImmM [31:0] $end
$var wire 1 Q MemWriteM $end
$var wire 1 W MemReadM $end
$var wire 1 ^ JtypeM $end
$var wire 1 n BranchM $end
$var wire 6 "" ALUSelectM [5:0] $end
$var wire 32 #" ALUOutM [31:0] $end
$var reg 32 $" ALUOutE2M [31:0] $end
$var reg 6 %" ALUSelectE2M [5:0] $end
$var reg 1 o BranchE2M $end
$var reg 1 _ JtypeE2M $end
$var reg 1 X MemReadE2M $end
$var reg 1 R MemWriteE2M $end
$var reg 32 &" PCPlusImmE2M [31:0] $end
$var reg 1 > RegWriteE2M $end
$var reg 32 '" StoreCounterOutE2M [31:0] $end
$var reg 5 (" WriteAddressE2M [4:0] $end
$upscope $end
$scope module FU $end
$var wire 1 " reset $end
$var wire 5 )" Rs2_E [4:0] $end
$var wire 5 *" Rs1_E [4:0] $end
$var wire 1 9 RegWriteW $end
$var wire 1 < RegWriteM $end
$var wire 5 +" RD_W [4:0] $end
$var wire 5 ," RD_M [4:0] $end
$var wire 2 -" ForwardBE [1:0] $end
$var wire 2 ." ForwardAE [1:0] $end
$upscope $end
$scope module HDU_Imp $end
$var wire 1 k FlushE $end
$var wire 1 / StallD $end
$var wire 1 . StallF $end
$var wire 1 /" hazard_detected $end
$var wire 5 0" Rs2D2HDU [4:0] $end
$var wire 5 1" Rs1D2HDU [4:0] $end
$var wire 5 2" RdE2HDU [4:0] $end
$var wire 1 Y MemReadE2HDU $end
$upscope $end
$scope module ID_EX_Register_Inst $end
$var wire 1 ! clk $end
$var wire 1 " reset $end
$var wire 5 3" WriteAddressE [4:0] $end
$var wire 5 4" Rs2E [4:0] $end
$var wire 5 5" Rs1E [4:0] $end
$var wire 1 ? RegWriteE $end
$var wire 32 6" ReadOut2E [31:0] $end
$var wire 32 7" ReadOut1E [31:0] $end
$var wire 1 H PCSelectE $end
$var wire 32 8" PCE [31:0] $end
$var wire 1 S MemWriteE $end
$var wire 1 Z MemReadE $end
$var wire 1 ` JtypeE $end
$var wire 1 e ImmSelectE $end
$var wire 32 9" ImmGenOutE [31:0] $end
$var wire 6 :" ALUSelectE [5:0] $end
$var reg 6 ;" ALUSelectD2E [5:0] $end
$var reg 32 <" ImmGenOutD2E [31:0] $end
$var reg 1 f ImmSelectD2E $end
$var reg 1 a JtypeD2E $end
$var reg 1 [ MemReadD2E $end
$var reg 1 T MemWriteD2E $end
$var reg 32 =" PCD2E [31:0] $end
$var reg 1 I PCSelectD2E $end
$var reg 32 >" ReadOut1D2E [31:0] $end
$var reg 32 ?" ReadOut2D2E [31:0] $end
$var reg 1 @ RegWriteD2E $end
$var reg 5 @" Rs1D2E [4:0] $end
$var reg 5 A" Rs2D2E [4:0] $end
$var reg 5 B" WriteAddressD2E [4:0] $end
$upscope $end
$scope module IF_ID_Register_Inst $end
$var wire 1 / StallD $end
$var wire 1 ! clk $end
$var wire 1 " reset $end
$var wire 32 C" PCD [31:0] $end
$var wire 32 D" InstrD [31:0] $end
$var reg 32 E" InstrF2D [31:0] $end
$var reg 32 F" PCF2D [31:0] $end
$upscope $end
$scope module MEM_WB_Register_Inst $end
$var wire 1 ! clk $end
$var wire 1 " reset $end
$var wire 5 G" WriteAddressW [4:0] $end
$var wire 1 : RegWriteW $end
$var wire 1 U MemReadW $end
$var wire 1 \ JtypeW $end
$var wire 32 H" DataMemOutW [31:0] $end
$var wire 6 I" ALUSelectW [5:0] $end
$var wire 32 J" ALUOutW [31:0] $end
$var reg 32 K" ALUOutM2W [31:0] $end
$var reg 6 L" ALUSelectM2W [5:0] $end
$var reg 32 M" DataMemOutM2W [31:0] $end
$var reg 1 ] JtypeM2W $end
$var reg 1 V MemReadM2W $end
$var reg 1 ; RegWriteM2W $end
$var reg 5 N" WriteAddressM2W [4:0] $end
$upscope $end
$scope module Mem_cycle_Imp $end
$var wire 32 O" ALUOut2E [31:0] $end
$var wire 32 P" ALUOutE [31:0] $end
$var wire 32 Q" ALUOutF [31:0] $end
$var wire 32 R" ALUOutW [31:0] $end
$var wire 6 S" ALUSelectE [5:0] $end
$var wire 6 T" ALUSelectW [5:0] $end
$var wire 1 o BranchE $end
$var wire 1 p BranchF $end
$var wire 1 _ JtypeE $end
$var wire 1 b JtypeF $end
$var wire 1 \ JtypeW $end
$var wire 1 X MemReadE $end
$var wire 1 U MemReadW $end
$var wire 1 R MemWriteE $end
$var wire 32 U" PCPlusImmE [31:0] $end
$var wire 32 V" PCPlusImmF [31:0] $end
$var wire 1 < RegWrite2FU $end
$var wire 1 > RegWriteE $end
$var wire 1 : RegWriteW $end
$var wire 32 W" StoreConverterE [31:0] $end
$var wire 5 X" WriteAddress2FU [4:0] $end
$var wire 5 Y" WriteAddressE [4:0] $end
$var wire 5 Z" WriteAddressW [4:0] $end
$var wire 1 ! clk $end
$var wire 1 " reset $end
$var wire 32 [" DataMemOutW [31:0] $end
$scope module DataMemoryMem $end
$var wire 1 X MemRead $end
$var wire 1 R MemWrite $end
$var wire 32 \" Write_data [31:0] $end
$var wire 1 ! clk $end
$var wire 32 ]" read_address [31:0] $end
$var wire 1 " reset $end
$var wire 32 ^" MemData_out [31:0] $end
$scope begin $ivl_for_loop0 $end
$var integer 32 _" k [31:0] $end
$upscope $end
$upscope $end
$upscope $end
$scope module decode_cycle_Imp $end
$var wire 1 k FlushE $end
$var wire 32 `" PCE [31:0] $end
$var wire 32 a" PCF [31:0] $end
$var wire 1 ! clk $end
$var wire 32 b" instructionF [31:0] $end
$var wire 1 " reset $end
$var wire 32 c" writeDataW [31:0] $end
$var wire 5 d" WriteAddressW [4:0] $end
$var wire 5 e" WriteAddressE [4:0] $end
$var wire 5 f" Rs2E [4:0] $end
$var wire 5 g" Rs2D2HDU [4:0] $end
$var wire 5 h" Rs1E [4:0] $end
$var wire 5 i" Rs1D2HDU [4:0] $end
$var wire 1 A RegWriteW $end
$var wire 1 ? RegWriteE $end
$var wire 1 j" RegWriteD $end
$var wire 32 k" ReadOut2E [31:0] $end
$var wire 32 l" ReadOut1E [31:0] $end
$var wire 1 H PCSelectE $end
$var wire 1 m" PCSelectD $end
$var wire 1 S MemWriteE $end
$var wire 1 n" MemWriteD $end
$var wire 1 Z MemReadE $end
$var wire 1 o" MemReadD $end
$var wire 1 ` JtypeE $end
$var wire 1 p" JtypeD $end
$var wire 1 e ImmSelectE $end
$var wire 1 q" ImmSelectD $end
$var wire 32 r" ImmGenOutE [31:0] $end
$var wire 6 s" ALUSelectE [5:0] $end
$var wire 6 t" ALUSelectD [5:0] $end
$scope module ControlUnitD $end
$var wire 32 u" instruction [31:0] $end
$var wire 7 v" opcode [6:0] $end
$var wire 7 w" funct7 [6:0] $end
$var wire 3 x" funct3 [2:0] $end
$var reg 1 q" ImmSelect $end
$var reg 1 p" Jtype $end
$var reg 1 o" MemRead $end
$var reg 1 n" MemWrite $end
$var reg 1 m" PCSelect $end
$var reg 6 y" aluSelect [5:0] $end
$var reg 1 j" regWrite $end
$upscope $end
$scope module ImmGen_D $end
$var wire 32 z" instr [31:0] $end
$var wire 7 {" opcode [6:0] $end
$var reg 32 |" immOut [31:0] $end
$upscope $end
$scope module Masking_Mux_CU_Imp $end
$var wire 6 }" ALUSelect [5:0] $end
$var wire 1 k FlushE $end
$var wire 1 q" ImmSelect $end
$var wire 1 p" Jtype $end
$var wire 1 o" MemRead $end
$var wire 1 n" MemWrite $end
$var wire 1 m" PCSelect $end
$var wire 1 j" RegWrite $end
$var wire 1 ? RegWriteMasked $end
$var wire 1 H PCSelectMasked $end
$var wire 1 S MemWriteMasked $end
$var wire 1 Z MemReadMasked $end
$var wire 1 ` JtypeMasked $end
$var wire 1 e ImmSelectMasked $end
$var wire 6 ~" ALUSelectMasked [5:0] $end
$upscope $end
$scope module Reg_File_D $end
$var wire 5 !# Rs1 [4:0] $end
$var wire 5 "# Rs2 [4:0] $end
$var wire 1 ! clk $end
$var wire 1 " reset $end
$var wire 32 ## read_data2 [31:0] $end
$var wire 32 $# read_data1 [31:0] $end
$var wire 32 %# Write_data [31:0] $end
$var wire 1 A RegWrite $end
$var wire 5 &# Rd [4:0] $end
$var integer 32 '# i [31:0] $end
$upscope $end
$upscope $end
$scope module execution_cycle_Imp $end
$var wire 32 (# ALUOutfromM [31:0] $end
$var wire 6 )# ALUSelectD [5:0] $end
$var wire 6 *# ALUSelectM [5:0] $end
$var wire 2 +# ForwardAE [1:0] $end
$var wire 2 ,# ForwardBE [1:0] $end
$var wire 32 -# ImmGenOutD [31:0] $end
$var wire 1 f ImmSelectD $end
$var wire 1 a JtypeD $end
$var wire 1 ^ JtypeM $end
$var wire 1 [ MemReadD $end
$var wire 1 Y MemReadE2HDU $end
$var wire 1 W MemReadM $end
$var wire 1 T MemWriteD $end
$var wire 1 Q MemWriteM $end
$var wire 32 .# PCD [31:0] $end
$var wire 1 I PCSelectD $end
$var wire 5 /# RdE2HDU [4:0] $end
$var wire 32 0# RegOut1D [31:0] $end
$var wire 32 1# RegOut2D [31:0] $end
$var wire 1 @ RegWriteD $end
$var wire 1 = RegWriteM $end
$var wire 5 2# Rs1D [4:0] $end
$var wire 5 3# Rs1FU [4:0] $end
$var wire 5 4# Rs2D [4:0] $end
$var wire 5 5# Rs2FU [4:0] $end
$var wire 5 6# WriteAddressD [4:0] $end
$var wire 5 7# WriteAddressM [4:0] $end
$var wire 32 8# StoreCounterOutM [31:0] $end
$var wire 32 9# ShifterOutE [31:0] $end
$var wire 32 :# ResultOutfromWB [31:0] $end
$var wire 32 ;# RegOut2Fwd [31:0] $end
$var wire 32 <# RegOut1Fwd [31:0] $end
$var wire 32 =# PCPlusImmM [31:0] $end
$var wire 32 ># Mux2EdashOut [31:0] $end
$var wire 32 ?# Mux1outE [31:0] $end
$var wire 1 n BranchM $end
$var wire 32 @# ALUOutM [31:0] $end
$scope module ALUE $end
$var wire 6 A# aluSelect [5:0] $end
$var wire 32 B# utype_result [31:0] $end
$var wire 32 C# rtype_result [31:0] $end
$var wire 32 D# rs2 [31:0] $end
$var wire 32 E# rs1 [31:0] $end
$var wire 32 F# muldiv_result [31:0] $end
$var wire 32 G# loadstore_result [31:0] $end
$var wire 32 H# jtype_result [31:0] $end
$var wire 1 n branch_taken $end
$var reg 32 I# result [31:0] $end
$scope module btype_inst $end
$var wire 6 J# aluSelect [5:0] $end
$var wire 32 K# rs2 [31:0] $end
$var wire 32 L# rs1 [31:0] $end
$var reg 1 n branch_taken $end
$var reg 32 M# result [31:0] $end
$upscope $end
$scope module jtype_inst $end
$var wire 6 N# aluSelect [5:0] $end
$var wire 32 O# pc [31:0] $end
$var wire 32 P# imm [31:0] $end
$var reg 32 Q# next_pc [31:0] $end
$upscope $end
$scope module loadstore $end
$var wire 6 R# aluSelect [5:0] $end
$var wire 32 S# rs1 [31:0] $end
$var wire 32 T# imm [31:0] $end
$var reg 32 U# address [31:0] $end
$upscope $end
$scope module muldiv_inst $end
$var wire 6 V# aluSelect [5:0] $end
$var wire 64 W# unsigned_product [63:0] $end
$var wire 64 X# signed_product1 [63:0] $end
$var wire 64 Y# signed_product [63:0] $end
$var wire 32 Z# rs2 [31:0] $end
$var wire 32 [# rs1 [31:0] $end
$var reg 32 \# result [31:0] $end
$upscope $end
$scope module rtype $end
$var wire 6 ]# aluSelect [5:0] $end
$var wire 32 ^# b [31:0] $end
$var wire 32 _# a [31:0] $end
$var reg 32 `# result [31:0] $end
$upscope $end
$scope module utype $end
$var wire 6 a# aluSelect [5:0] $end
$var wire 32 b# pc [31:0] $end
$var wire 32 c# imm_u [31:0] $end
$var reg 32 d# result [31:0] $end
$upscope $end
$upscope $end
$scope module AdderE $end
$var wire 32 e# in_1 [31:0] $end
$var wire 32 f# in_2 [31:0] $end
$var wire 32 g# Sum_out [31:0] $end
$upscope $end
$scope module Mux1E $end
$var wire 32 h# A [31:0] $end
$var wire 1 I select $end
$var wire 32 i# Mux_out [31:0] $end
$var wire 32 j# B [31:0] $end
$upscope $end
$scope module Mux2E $end
$var wire 32 k# A [31:0] $end
$var wire 1 f select $end
$var wire 32 l# Mux_out [31:0] $end
$var wire 32 m# B [31:0] $end
$upscope $end
$scope module Mux_Reg1Fwd $end
$var wire 32 n# in1 [31:0] $end
$var wire 32 o# in3 [31:0] $end
$var wire 2 p# select [1:0] $end
$var wire 32 q# out [31:0] $end
$var wire 32 r# in2 [31:0] $end
$upscope $end
$scope module Mux_Reg2Fwd $end
$var wire 32 s# in1 [31:0] $end
$var wire 32 t# in3 [31:0] $end
$var wire 2 u# select [1:0] $end
$var wire 32 v# out [31:0] $end
$var wire 32 w# in2 [31:0] $end
$upscope $end
$scope module ShiftLeft1E $end
$var wire 32 x# in [31:0] $end
$var wire 32 y# out [31:0] $end
$upscope $end
$scope module StoreConverterE $end
$var wire 6 z# aluSelect [5:0] $end
$var wire 32 {# inputData [31:0] $end
$var reg 32 |# outputData [31:0] $end
$upscope $end
$upscope $end
$scope module fetch_cycle_Imp $end
$var wire 32 }# ALUOutM [31:0] $end
$var wire 1 p BranchM $end
$var wire 32 ~# InstrD [31:0] $end
$var wire 1 b JtypeM $end
$var wire 32 !$ PCD [31:0] $end
$var wire 32 "$ PCPlusImmM [31:0] $end
$var wire 1 . StallF $end
$var wire 1 ! clk $end
$var wire 1 " reset $end
$var wire 32 #$ PCPlus4F [31:0] $end
$var wire 32 $$ PCOutF [31:0] $end
$var wire 32 %$ PCInF [31:0] $end
$var wire 32 &$ JtypeMuxOutF [31:0] $end
$var wire 32 '$ InstrF [31:0] $end
$scope module BranchEMux $end
$var wire 1 p select $end
$var wire 32 ($ Mux_out [31:0] $end
$var wire 32 )$ B [31:0] $end
$var wire 32 *$ A [31:0] $end
$upscope $end
$scope module Instr_Mem $end
$var wire 1 ! clk $end
$var wire 1 " reset $end
$var wire 32 +$ read_address [31:0] $end
$var reg 32 ,$ instruction_out [31:0] $end
$upscope $end
$scope module JtypeEMux $end
$var wire 32 -$ A [31:0] $end
$var wire 32 .$ B [31:0] $end
$var wire 1 b select $end
$var wire 32 /$ Mux_out [31:0] $end
$upscope $end
$scope module PCPlus4 $end
$var wire 32 0$ in_2 [31:0] $end
$var wire 32 1$ in_1 [31:0] $end
$var wire 32 2$ Sum_out [31:0] $end
$upscope $end
$scope module Program_Counter_Fetch $end
$var wire 32 3$ PC_in [31:0] $end
$var wire 1 . StallF $end
$var wire 1 ! clk $end
$var wire 1 " reset $end
$var reg 32 4$ PC_out [31:0] $end
$upscope $end
$upscope $end
$scope module writeBack_cycle_Imp $end
$var wire 32 5$ ALUOutM [31:0] $end
$var wire 6 6$ ALUSelectM [5:0] $end
$var wire 32 7$ DataMemOutM [31:0] $end
$var wire 1 ] JtypeM $end
$var wire 1 V MemReadM $end
$var wire 1 9 RegWrite2FU $end
$var wire 1 A RegWriteD $end
$var wire 1 ; RegWriteM $end
$var wire 32 8$ ResultOut2E [31:0] $end
$var wire 5 9$ WriteAddress2FU [4:0] $end
$var wire 5 :$ WriteAddressD [4:0] $end
$var wire 5 ;$ WriteAddressM [4:0] $end
$var wire 32 <$ RegInDataD [31:0] $end
$var wire 32 =$ LoadConverterDataW [31:0] $end
$var wire 32 >$ Load2AdderW [31:0] $end
$var wire 32 ?$ Adder2Mux [31:0] $end
$scope module AdderW $end
$var wire 32 @$ in_2 [31:0] $end
$var wire 32 A$ in_1 [31:0] $end
$var wire 32 B$ Sum_out [31:0] $end
$upscope $end
$scope module LoadConverterW $end
$var wire 6 C$ aluSelect [5:0] $end
$var wire 32 D$ inputData [31:0] $end
$var reg 32 E$ outputData [31:0] $end
$upscope $end
$scope module Mux1 $end
$var wire 32 F$ A [31:0] $end
$var wire 32 G$ B [31:0] $end
$var wire 1 V select $end
$var wire 32 H$ Mux_out [31:0] $end
$upscope $end
$scope module Mux2 $end
$var wire 32 I$ A [31:0] $end
$var wire 32 J$ B [31:0] $end
$var wire 1 ] select $end
$var wire 32 K$ Mux_out [31:0] $end
$upscope $end
$upscope $end
$upscope $end
$scope task display_state $end
$var integer 32 L$ i [31:0] $end
$upscope $end
$upscope $end
$enddefinitions $end
#0
$dumpvars
bx L$
b0 K$
b0 J$
b100 I$
b0 H$
b0 G$
b0 F$
b0 E$
b0 D$
b0 C$
b100 B$
b0 A$
b100 @$
b100 ?$
b0 >$
b0 =$
b0 <$
b0 ;$
b0 :$
b0 9$
b0 8$
b0 7$
b0 6$
b0 5$
b0 4$
b100 3$
b100 2$
b0 1$
b100 0$
b0 /$
b0 .$
b0 -$
bx ,$
b0 +$
b0 *$
b100 )$
b100 ($
bx '$
b0 &$
b100 %$
b0 $$
b100 #$
b0 "$
b0 !$
bx ~#
b0 }#
b0 |#
b0 {#
b0 z#
b0 y#
b0 x#
b0 w#
b0 v#
b0 u#
b0 t#
b0 s#
b0 r#
b0 q#
b0 p#
b0 o#
b0 n#
b0 m#
b0 l#
b0 k#
b0 j#
b0 i#
b0 h#
b0 g#
b0 f#
b0 e#
b0 d#
b0 c#
b0 b#
b0 a#
b0 `#
b0 _#
b0 ^#
b0 ]#
b0 \#
b0 [#
b0 Z#
b0 Y#
b0 X#
b0 W#
b0 V#
b0 U#
b0 T#
b0 S#
b0 R#
b0 Q#
b0 P#
b0 O#
b0 N#
bx M#
b0 L#
b0 K#
b0 J#
b0 I#
b0 H#
b0 G#
b0 F#
b0 E#
b0 D#
b0 C#
b0 B#
b0 A#
b0 @#
b0 ?#
b0 >#
b0 =#
b0 <#
b0 ;#
b0 :#
b0 9#
b0 8#
b0 7#
b0 6#
b0 5#
b0 4#
b0 3#
b0 2#
b0 1#
b0 0#
b0 /#
b0 .#
b0 -#
b0 ,#
b0 +#
b0 *#
b0 )#
b0 (#
b100000 '#
b0 &#
b0 %#
b0 $#
b0 ##
b0 "#
b0 !#
b0 ~"
b0 }"
b0 |"
b0 {"
b0 z"
b0 y"
b0 x"
b0 w"
b0 v"
b0 u"
b0 t"
b0 s"
b0 r"
0q"
0p"
0o"
0n"
0m"
b0 l"
b0 k"
0j"
b0 i"
b0 h"
b0 g"
b0 f"
b0 e"
b0 d"
b0 c"
b0 b"
b0 a"
b0 `"
b1000000 _"
b0 ^"
b0 ]"
b0 \"
b0 ["
b0 Z"
b0 Y"
b0 X"
b0 W"
b0 V"
b0 U"
b0 T"
b0 S"
b0 R"
b0 Q"
b0 P"
b0 O"
b0 N"
b0 M"
b0 L"
b0 K"
b0 J"
b0 I"
b0 H"
b0 G"
b0 F"
b0 E"
bx D"
b0 C"
b0 B"
b0 A"
b0 @"
b0 ?"
b0 >"
b0 ="
b0 <"
b0 ;"
b0 :"
b0 9"
b0 8"
b0 7"
b0 6"
b0 5"
b0 4"
b0 3"
b0 2"
b0 1"
b0 0"
0/"
b0 ."
b0 -"
b0 ,"
b0 +"
b0 *"
b0 )"
b0 ("
b0 '"
b0 &"
b0 %"
b0 $"
b0 #"
b0 ""
b0 !"
b0 ~
b0 }
b0 |
b0 {
b0 z
b0 y
b0 x
b0 w
b0 v
b0 u
b0 t
b0 s
b0 r
b0 q
0p
0o
0n
b0 m
b0 l
0k
b0 j
b0 i
b0 h
b0 g
0f
0e
bx d
b0 c
0b
0a
0`
0_
0^
0]
0\
0[
0Z
0Y
0X
0W
0V
0U
0T
0S
0R
0Q
b0 P
b0 O
b0 N
b0 M
b0 L
b0 K
b0 J
0I
0H
b0 G
b0 F
b0 E
b0 D
b0 C
b0 B
0A
0@
0?
0>
0=
0<
0;
0:
09
b0 8
b0 7
b0 6
b0 5
b0 4
b0 3
b0 2
b0 1
b0 0
0/
0.
b0 -
b0 ,
b0 +
b0 *
b0 )
b0 (
b0 '
b0 &
b0 %
b0 $
b0 #
1"
0!
$end
#5000
b0 d
b0 D"
b0 ~#
b0 '$
b0 ,$
b1000000 _"
b100000 '#
1!
#10000
0!
#15000
b1000000 _"
b100000 '#
1!
#20000
0!
0"
#25000
b1000 %$
b1000 ($
b1000 3$
b1000 #$
b1000 )$
b1000 2$
b100 P
b100 C"
b100 !$
b100 $$
b100 +$
b100 1$
b100 4$
b1010000000000000010010011 d
b1010000000000000010010011 D"
b1010000000000000010010011 ~#
b1010000000000000010010011 '$
b1010000000000000010010011 ,$
b10000 L$
1!
#30000
0!
#35000
b10011 u
b10011 :"
b10011 s"
b10011 ~"
1?
1e
b1100 %$
b1100 ($
b1100 3$
b1 )
b1 3"
b1 e"
b10100 1
b10100 4"
b10100 f"
b10100 2
b10100 0"
b10100 g"
b10100 "#
b10011 t"
b10011 y"
b10011 }"
1j"
1q"
b10011 v"
b10100 g
b10100 9"
b10100 r"
b10100 |"
b10011 {"
b1100 #$
b1100 )$
b1100 2$
b1000 P
b1000 C"
b1000 !$
b1000 $$
b1000 +$
b1000 1$
b1000 4$
b1010000000000000010010011 c
b1010000000000000010010011 E"
b1010000000000000010010011 b"
b1010000000000000010010011 u"
b1010000000000000010010011 z"
b100 N
b100 8"
b100 `"
b100 M
b100 F"
b100 a"
b111100000000000100010011 d
b111100000000000100010011 D"
b111100000000000100010011 ~#
b111100000000000100010011 '$
b111100000000000100010011 ,$
b10000 L$
1!
#40000
0!
#45000
b10100 z
b10100 #"
b10100 @#
b10100 I#
b10100 C#
b10100 `#
b10100 >#
b10100 D#
b10100 K#
b10100 P#
b10100 T#
b10100 Z#
b10100 ^#
b10100 c#
b10100 l#
b10 )
b10 3"
b10 e"
b1111 1
b1111 4"
b1111 f"
b1111 2
b1111 0"
b1111 g"
b1111 "#
1j"
1q"
b10011 t"
b10011 y"
b10011 }"
b1111 g
b1111 9"
b1111 r"
b1111 |"
b101000 9#
b101000 f#
b101000 y#
b10000 %$
b10000 ($
b10000 3$
b111100000000000100010011 c
b111100000000000100010011 E"
b111100000000000100010011 b"
b111100000000000100010011 u"
b111100000000000100010011 z"
b1000 N
b1000 8"
b1000 `"
b1000 M
b1000 F"
b1000 a"
b10100 0
b10100 )"
b10100 5#
b10100 3
b10100 A"
b10100 4#
b101100 J
b101100 !"
b101100 =#
b101100 g#
b100 O
b100 ="
b100 .#
b100 e#
b100 h#
b10100 h
b10100 <"
b10100 -#
b10100 k#
b10100 x#
1f
b10011 s
b10011 ""
b10011 *#
b10011 v
b10011 ;"
b10011 )#
b10011 A#
b10011 J#
b10011 N#
b10011 R#
b10011 V#
b10011 ]#
b10011 a#
b10011 z#
1=
1@
b1 '
b1 }
b1 7#
b1 G
b1 2"
b1 /#
b1 *
b1 B"
b1 6#
b10000 #$
b10000 )$
b10000 2$
b1100 P
b1100 C"
b1100 !$
b1100 $$
b1100 +$
b1100 1$
b1100 4$
b1000001000000110110011 d
b1000001000000110110011 D"
b1000001000000110110011 ~#
b1000001000000110110011 '$
b1000001000000110110011 ,$
b10000 L$
1!
#50000
0!
#55000
b1111 z
b1111 #"
b1111 @#
b1111 I#
b1111 C#
b1111 `#
0e
b11100 u
b11100 :"
b11100 s"
b11100 ~"
b10100 %$
b10100 ($
b10100 3$
b101100 &$
b101100 *$
b101100 /$
b1111 >#
b1111 D#
b1111 K#
b1111 P#
b1111 T#
b1111 Z#
b1111 ^#
b1111 c#
b1111 l#
b11110 9#
b11110 f#
b11110 y#
b11 )
b11 3"
b11 e"
b1 5
b1 5"
b1 h"
b10 1
b10 4"
b10 f"
b1 6
b1 1"
b1 i"
b10 2
b10 0"
b10 g"
b1 !#
b10 "#
1j"
0q"
b11100 t"
b11100 y"
b11100 }"
b110011 v"
b0 g
b0 9"
b0 r"
b0 |"
b110011 {"
b10100 #$
b10100 )$
b10100 2$
b10000 P
b10000 C"
b10000 !$
b10000 $$
b10000 +$
b10000 1$
b10000 4$
b101100 L
b101100 V"
b101100 "$
b101100 .$
b101100 K
b101100 &"
b101100 U"
b10100 |
b10100 Q"
b10100 }#
b10100 -$
b10100 x
b10100 J"
b10100 R"
b10100 w
b10100 O"
b10100 (#
b10100 o#
b10100 t#
b10100 {
b10100 $"
b10100 P"
b10100 ]"
b10011 q
b10011 I"
b10011 T"
b10011 t
b10011 %"
b10011 S"
1:
1<
1>
b1 $
b1 G"
b1 Z"
b1 &
b1 ,"
b1 X"
b1 (
b1 ("
b1 Y"
b1111 0
b1111 )"
b1111 5#
b1111 3
b1111 A"
b1111 4#
b100110 J
b100110 !"
b100110 =#
b100110 g#
b1000 O
b1000 ="
b1000 .#
b1000 e#
b1000 h#
b1111 h
b1111 <"
b1111 -#
b1111 k#
b1111 x#
b10 '
b10 }
b10 7#
b10 G
b10 2"
b10 /#
b10 *
b10 B"
b10 6#
b1000001000000110110011 c
b1000001000000110110011 E"
b1000001000000110110011 b"
b1000001000000110110011 u"
b1000001000000110110011 z"
b1100 N
b1100 8"
b1100 `"
b1100 M
b1100 F"
b1100 a"
b1000000001000011000001000110011 d
b1000000001000011000001000110011 D"
b1000000001000011000001000110011 ~#
b1000000001000011000001000110011 '$
b1000000001000011000001000110011 ,$
b10000 L$
1!
#60000
0!
