Hazard Handled with Forwarding Unit (copy)/top_cpu.vcd
$date
	Mon Jul  7 07:56:27 2025
$end
$version
	Icarus Verilog
$end
$timescale
	1ps
$end
$scope module top_cpu_tb $end
$var reg 1 ! clk $end
$var reg 1 " reset $end
$scope module uut $end
$var wire 1 ! clk $end
$var wire 1 " reset $end
$var wire 5 # WriteAddressW2FU [4:0] $end
$var wire 5 $ WriteAddressW [4:0] $end
$var wire 5 % WriteAddressM2W [4:0] $end
$var wire 5 & WriteAddressM2FU [4:0] $end
$var wire 5 ' WriteAddressM [4:0] $end
$var wire 5 ( WriteAddressE2M [4:0] $end
$var wire 5 ) WriteAddressE [4:0] $end
$var wire 5 * WriteAddressD2E [4:0] $end
$var wire 5 + WriteAddress [4:0] $end
$var wire 32 , StoreCounterOutM [31:0] $end
$var wire 32 - StoreCounterOutE2M [31:0] $end
$var wire 5 . Rs2E2FU [4:0] $end
$var wire 5 / Rs2E [4:0] $end
$var wire 5 0 Rs2D2E [4:0] $end
$var wire 5 1 Rs1E2FU [4:0] $end
$var wire 5 2 Rs1E [4:0] $end
$var wire 5 3 Rs1D2E [4:0] $end
$var wire 32 4 ResultOutfromWB [31:0] $end
$var wire 1 5 RegWriteW2FU $end
$var wire 1 6 RegWriteW $end
$var wire 1 7 RegWriteM2W $end
$var wire 1 8 RegWriteM2FU $end
$var wire 1 9 RegWriteM $end
$var wire 1 : RegWriteE2M $end
$var wire 1 ; RegWriteE $end
$var wire 1 < RegWriteD2E $end
$var wire 1 = RegWrite $end
$var wire 32 > RegInData [31:0] $end
$var wire 32 ? ReadOut2E [31:0] $end
$var wire 32 @ ReadOut2D2E [31:0] $end
$var wire 32 A ReadOut1E [31:0] $end
$var wire 32 B ReadOut1D2E [31:0] $end
$var wire 1 C PCSelectE $end
$var wire 1 D PCSelectD2E $end
$var wire 32 E PCPlusImmM [31:0] $end
$var wire 32 F PCPlusImmE2M [31:0] $end
$var wire 32 G PCPlusImm [31:0] $end
$var wire 32 H PCF2D [31:0] $end
$var wire 32 I PCE [31:0] $end
$var wire 32 J PCD2E [31:0] $end
$var wire 32 K PCD [31:0] $end
$var wire 1 L MemWriteM $end
$var wire 1 M MemWriteE2M $end
$var wire 1 N MemWriteE $end
$var wire 1 O MemWriteD2E $end
$var wire 1 P MemReadW $end
$var wire 1 Q MemReadM2W $end
$var wire 1 R MemReadM $end
$var wire 1 S MemReadE2M $end
$var wire 1 T MemReadE $end
$var wire 1 U MemReadD2E $end
$var wire 1 V JtypeW $end
$var wire 1 W JtypeM2W $end
$var wire 1 X JtypeM $end
$var wire 1 Y JtypeE2M $end
$var wire 1 Z JtypeE $end
$var wire 1 [ JtypeD2E $end
$var wire 1 \ Jtype $end
$var wire 32 ] InstrF2D [31:0] $end
$var wire 32 ^ InstrD [31:0] $end
$var wire 1 _ ImmSelectE $end
$var wire 1 ` ImmSelectD2E $end
$var wire 32 a ImmGenOutE [31:0] $end
$var wire 32 b ImmGenOutD2E [31:0] $end
$var wire 2 c ForwardBE [1:0] $end
$var wire 2 d ForwardAE [1:0] $end
$var wire 32 e DataMemOutW [31:0] $end
$var wire 32 f DataMemOutM2W [31:0] $end
$var wire 1 g BranchM $end
$var wire 1 h BranchE2M $end
$var wire 1 i Branch $end
$var wire 6 j ALUSelectW [5:0] $end
$var wire 6 k ALUSelectM2W [5:0] $end
$var wire 6 l ALUSelectM [5:0] $end
$var wire 6 m ALUSelectE2M [5:0] $end
$var wire 6 n ALUSelectE [5:0] $end
$var wire 6 o ALUSelectD2E [5:0] $end
$var wire 32 p ALUOutfromM [31:0] $end
$var wire 32 q ALUOutW [31:0] $end
$var wire 32 r ALUOutM2W [31:0] $end
$var wire 32 s ALUOutM [31:0] $end
$var wire 32 t ALUOutE2M [31:0] $end
$var wire 32 u ALUOut [31:0] $end
$scope module EX_MEM_Register_Inst $end
$var wire 1 ! clk $end
$var wire 1 " reset $end
$var wire 5 v WriteAddressM [4:0] $end
$var wire 32 w StoreCounterOutM [31:0] $end
$var wire 1 9 RegWriteM $end
$var wire 32 x PCPlusImmM [31:0] $end
$var wire 1 L MemWriteM $end
$var wire 1 R MemReadM $end
$var wire 1 X JtypeM $end
$var wire 1 g BranchM $end
$var wire 6 y ALUSelectM [5:0] $end
$var wire 32 z ALUOutM [31:0] $end
$var reg 32 { ALUOutE2M [31:0] $end
$var reg 6 | ALUSelectE2M [5:0] $end
$var reg 1 h BranchE2M $end
$var reg 1 Y JtypeE2M $end
$var reg 1 S MemReadE2M $end
$var reg 1 M MemWriteE2M $end
$var reg 32 } PCPlusImmE2M [31:0] $end
$var reg 1 : RegWriteE2M $end
$var reg 32 ~ StoreCounterOutE2M [31:0] $end
$var reg 5 !" WriteAddressE2M [4:0] $end
$upscope $end
$scope module FU $end
$var wire 1 " reset $end
$var wire 5 "" Rs2_E [4:0] $end
$var wire 5 #" Rs1_E [4:0] $end
$var wire 1 5 RegWriteW $end
$var wire 1 8 RegWriteM $end
$var wire 5 $" RD_W [4:0] $end
$var wire 5 %" RD_M [4:0] $end
$var wire 2 &" ForwardBE [1:0] $end
$var wire 2 '" ForwardAE [1:0] $end
$upscope $end
$scope module ID_EX_Register_Inst $end
$var wire 1 ! clk $end
$var wire 1 " reset $end
$var wire 5 (" WriteAddressE [4:0] $end
$var wire 5 )" Rs2E [4:0] $end
$var wire 5 *" Rs1E [4:0] $end
$var wire 1 ; RegWriteE $end
$var wire 32 +" ReadOut2E [31:0] $end
$var wire 32 ," ReadOut1E [31:0] $end
$var wire 1 C PCSelectE $end
$var wire 32 -" PCE [31:0] $end
$var wire 1 N MemWriteE $end
$var wire 1 T MemReadE $end
$var wire 1 Z JtypeE $end
$var wire 1 _ ImmSelectE $end
$var wire 32 ." ImmGenOutE [31:0] $end
$var wire 6 /" ALUSelectE [5:0] $end
$var reg 6 0" ALUSelectD2E [5:0] $end
$var reg 32 1" ImmGenOutD2E [31:0] $end
$var reg 1 ` ImmSelectD2E $end
$var reg 1 [ JtypeD2E $end
$var reg 1 U MemReadD2E $end
$var reg 1 O MemWriteD2E $end
$var reg 32 2" PCD2E [31:0] $end
$var reg 1 D PCSelectD2E $end
$var reg 32 3" ReadOut1D2E [31:0] $end
$var reg 32 4" ReadOut2D2E [31:0] $end
$var reg 1 < RegWriteD2E $end
$var reg 5 5" Rs1D2E [4:0] $end
$var reg 5 6" Rs2D2E [4:0] $end
$var reg 5 7" WriteAddressD2E [4:0] $end
$upscope $end
$scope module IF_ID_Register_Inst $end
$var wire 1 ! clk $end
$var wire 1 " reset $end
$var wire 32 8" PCD [31:0] $end
$var wire 32 9" InstrD [31:0] $end
$var reg 32 :" InstrF2D [31:0] $end
$var reg 32 ;" PCF2D [31:0] $end
$upscope $end
$scope module MEM_WB_Register_Inst $end
$var wire 1 ! clk $end
$var wire 1 " reset $end
$var wire 5 <" WriteAddressW [4:0] $end
$var wire 1 6 RegWriteW $end
$var wire 1 P MemReadW $end
$var wire 1 V JtypeW $end
$var wire 32 =" DataMemOutW [31:0] $end
$var wire 6 >" ALUSelectW [5:0] $end
$var wire 32 ?" ALUOutW [31:0] $end
$var reg 32 @" ALUOutM2W [31:0] $end
$var reg 6 A" ALUSelectM2W [5:0] $end
$var reg 32 B" DataMemOutM2W [31:0] $end
$var reg 1 W JtypeM2W $end
$var reg 1 Q MemReadM2W $end
$var reg 1 7 RegWriteM2W $end
$var reg 5 C" WriteAddressM2W [4:0] $end
$upscope $end
$scope module Mem_cycle_Imp $end
$var wire 32 D" ALUOut2E [31:0] $end
$var wire 32 E" ALUOutE [31:0] $end
$var wire 32 F" ALUOutF [31:0] $end
$var wire 32 G" ALUOutW [31:0] $end
$var wire 6 H" ALUSelectE [5:0] $end
$var wire 6 I" ALUSelectW [5:0] $end
$var wire 1 h BranchE $end
$var wire 1 i BranchF $end
$var wire 1 Y JtypeE $end
$var wire 1 \ JtypeF $end
$var wire 1 V JtypeW $end
$var wire 1 S MemReadE $end
$var wire 1 P MemReadW $end
$var wire 1 M MemWriteE $end
$var wire 32 J" PCPlusImmE [31:0] $end
$var wire 32 K" PCPlusImmF [31:0] $end
$var wire 1 8 RegWrite2FU $end
$var wire 1 : RegWriteE $end
$var wire 1 6 RegWriteW $end
$var wire 32 L" StoreConverterE [31:0] $end
$var wire 5 M" WriteAddress2FU [4:0] $end
$var wire 5 N" WriteAddressE [4:0] $end
$var wire 5 O" WriteAddressW [4:0] $end
$var wire 1 ! clk $end
$var wire 1 " reset $end
$var wire 32 P" DataMemOutW [31:0] $end
$scope module DataMemoryMem $end
$var wire 1 S MemRead $end
$var wire 1 M MemWrite $end
$var wire 32 Q" Write_data [31:0] $end
$var wire 1 ! clk $end
$var wire 32 R" read_address [31:0] $end
$var wire 1 " reset $end
$var wire 32 S" MemData_out [31:0] $end
$scope begin $ivl_for_loop0 $end
$var integer 32 T" k [31:0] $end
$upscope $end
$upscope $end
$upscope $end
$scope module decode_cycle_Imp $end
$var wire 32 U" PCE [31:0] $end
$var wire 32 V" PCF [31:0] $end
$var wire 1 ! clk $end
$var wire 32 W" instructionF [31:0] $end
$var wire 1 " reset $end
$var wire 32 X" writeDataW [31:0] $end
$var wire 5 Y" WriteAddressW [4:0] $end
$var wire 5 Z" WriteAddressE [4:0] $end
$var wire 5 [" Rs2E [4:0] $end
$var wire 5 \" Rs1E [4:0] $end
$var wire 1 = RegWriteW $end
$var wire 1 ; RegWriteE $end
$var wire 32 ]" ReadOut2E [31:0] $end
$var wire 32 ^" ReadOut1E [31:0] $end
$var wire 1 C PCSelectE $end
$var wire 1 N MemWriteE $end
$var wire 1 T MemReadE $end
$var wire 1 Z JtypeE $end
$var wire 1 _ ImmSelectE $end
$var wire 32 _" ImmGenOutE [31:0] $end
$var wire 6 `" ALUSelectE [5:0] $end
$scope module ControlUnitD $end
$var wire 32 a" instruction [31:0] $end
$var wire 7 b" opcode [6:0] $end
$var wire 7 c" funct7 [6:0] $end
$var wire 3 d" funct3 [2:0] $end
$var reg 1 _ ImmSelect $end
$var reg 1 Z Jtype $end
$var reg 1 T MemRead $end
$var reg 1 N MemWrite $end
$var reg 1 C PCSelect $end
$var reg 6 e" aluSelect [5:0] $end
$var reg 1 ; regWrite $end
$upscope $end
$scope module ImmGen_D $end
$var wire 32 f" instr [31:0] $end
$var wire 7 g" opcode [6:0] $end
$var reg 32 h" immOut [31:0] $end
$upscope $end
$scope module Reg_File_D $end
$var wire 5 i" Rs1 [4:0] $end
$var wire 5 j" Rs2 [4:0] $end
$var wire 1 ! clk $end
$var wire 1 " reset $end
$var wire 32 k" read_data2 [31:0] $end
$var wire 32 l" read_data1 [31:0] $end
$var wire 32 m" Write_data [31:0] $end
$var wire 1 = RegWrite $end
$var wire 5 n" Rd [4:0] $end
$var integer 32 o" i [31:0] $end
$upscope $end
$upscope $end
$scope module execution_cycle_Imp $end
$var wire 32 p" ALUOutfromM [31:0] $end
$var wire 6 q" ALUSelectD [5:0] $end
$var wire 6 r" ALUSelectM [5:0] $end
$var wire 2 s" ForwardAE [1:0] $end
$var wire 2 t" ForwardBE [1:0] $end
$var wire 32 u" ImmGenOutD [31:0] $end
$var wire 1 ` ImmSelectD $end
$var wire 1 [ JtypeD $end
$var wire 1 X JtypeM $end
$var wire 1 U MemReadD $end
$var wire 1 R MemReadM $end
$var wire 1 O MemWriteD $end
$var wire 1 L MemWriteM $end
$var wire 32 v" PCD [31:0] $end
$var wire 1 D PCSelectD $end
$var wire 32 w" RegOut1D [31:0] $end
$var wire 32 x" RegOut2D [31:0] $end
$var wire 1 < RegWriteD $end
$var wire 1 9 RegWriteM $end
$var wire 5 y" Rs1D [4:0] $end
$var wire 5 z" Rs1FU [4:0] $end
$var wire 5 {" Rs2D [4:0] $end
$var wire 5 |" Rs2FU [4:0] $end
$var wire 5 }" WriteAddressD [4:0] $end
$var wire 5 ~" WriteAddressM [4:0] $end
$var wire 32 !# StoreCounterOutM [31:0] $end
$var wire 32 "# ShifterOutE [31:0] $end
$var wire 32 ## ResultOutfromWB [31:0] $end
$var wire 32 $# RegOut2Fwd [31:0] $end
$var wire 32 %# RegOut1Fwd [31:0] $end
$var wire 32 &# PCPlusImmM [31:0] $end
$var wire 32 '# Mux2EdashOut [31:0] $end
$var wire 32 (# Mux1outE [31:0] $end
$var wire 1 g BranchM $end
$var wire 32 )# ALUOutM [31:0] $end
$scope module ALUE $end
$var wire 6 *# aluSelect [5:0] $end
$var wire 32 +# utype_result [31:0] $end
$var wire 32 ,# rtype_result [31:0] $end
$var wire 32 -# rs2 [31:0] $end
$var wire 32 .# rs1 [31:0] $end
$var wire 32 /# muldiv_result [31:0] $end
$var wire 32 0# loadstore_result [31:0] $end
$var wire 32 1# jtype_result [31:0] $end
$var wire 1 g branch_taken $end
$var reg 32 2# result [31:0] $end
$scope module btype_inst $end
$var wire 6 3# aluSelect [5:0] $end
$var wire 32 4# rs2 [31:0] $end
$var wire 32 5# rs1 [31:0] $end
$var reg 1 g branch_taken $end
$var reg 32 6# result [31:0] $end
$upscope $end
$scope module jtype_inst $end
$var wire 6 7# aluSelect [5:0] $end
$var wire 32 8# pc [31:0] $end
$var wire 32 9# imm [31:0] $end
$var reg 32 :# next_pc [31:0] $end
$upscope $end
$scope module loadstore $end
$var wire 6 ;# aluSelect [5:0] $end
$var wire 32 <# rs1 [31:0] $end
$var wire 32 =# imm [31:0] $end
$var reg 32 ># address [31:0] $end
$upscope $end
$scope module muldiv_inst $end
$var wire 6 ?# aluSelect [5:0] $end
$var wire 64 @# unsigned_product [63:0] $end
$var wire 64 A# signed_product1 [63:0] $end
$var wire 64 B# signed_product [63:0] $end
$var wire 32 C# rs2 [31:0] $end
$var wire 32 D# rs1 [31:0] $end
$var reg 32 E# result [31:0] $end
$upscope $end
$scope module rtype $end
$var wire 6 F# aluSelect [5:0] $end
$var wire 32 G# b [31:0] $end
$var wire 32 H# a [31:0] $end
$var reg 32 I# result [31:0] $end
$upscope $end
$scope module utype $end
$var wire 6 J# aluSelect [5:0] $end
$var wire 32 K# pc [31:0] $end
$var wire 32 L# imm_u [31:0] $end
$var reg 32 M# result [31:0] $end
$upscope $end
$upscope $end
$scope module AdderE $end
$var wire 32 N# in_1 [31:0] $end
$var wire 32 O# in_2 [31:0] $end
$var wire 32 P# Sum_out [31:0] $end
$upscope $end
$scope module Mux1E $end
$var wire 32 Q# A [31:0] $end
$var wire 1 D select $end
$var wire 32 R# Mux_out [31:0] $end
$var wire 32 S# B [31:0] $end
$upscope $end
$scope module Mux2E $end
$var wire 32 T# A [31:0] $end
$var wire 1 ` select $end
$var wire 32 U# Mux_out [31:0] $end
$var wire 32 V# B [31:0] $end
$upscope $end
$scope module Mux_Reg1Fwd $end
$var wire 32 W# in1 [31:0] $end
$var wire 32 X# in3 [31:0] $end
$var wire 2 Y# select [1:0] $end
$var wire 32 Z# out [31:0] $end
$var wire 32 [# in2 [31:0] $end
$upscope $end
$scope module Mux_Reg2Fwd $end
$var wire 32 \# in1 [31:0] $end
$var wire 32 ]# in3 [31:0] $end
$var wire 2 ^# select [1:0] $end
$var wire 32 _# out [31:0] $end
$var wire 32 `# in2 [31:0] $end
$upscope $end
$scope module ShiftLeft1E $end
$var wire 32 a# in [31:0] $end
$var wire 32 b# out [31:0] $end
$upscope $end
$scope module StoreConverterE $end
$var wire 6 c# aluSelect [5:0] $end
$var wire 32 d# inputData [31:0] $end
$var reg 32 e# outputData [31:0] $end
$upscope $end
$upscope $end
$scope module fetch_cycle_Imp $end
$var wire 32 f# ALUOutM [31:0] $end
$var wire 1 i BranchM $end
$var wire 32 g# InstrD [31:0] $end
$var wire 1 \ JtypeM $end
$var wire 32 h# PCD [31:0] $end
$var wire 32 i# PCPlusImmM [31:0] $end
$var wire 1 ! clk $end
$var wire 1 " reset $end
$var wire 32 j# PCPlus4F [31:0] $end
$var wire 32 k# PCOutF [31:0] $end
$var wire 32 l# PCInF [31:0] $end
$var wire 32 m# JtypeMuxOutF [31:0] $end
$var wire 32 n# InstrF [31:0] $end
$scope module BranchEMux $end
$var wire 1 i select $end
$var wire 32 o# Mux_out [31:0] $end
$var wire 32 p# B [31:0] $end
$var wire 32 q# A [31:0] $end
$upscope $end
$scope module Instr_Mem $end
$var wire 1 ! clk $end
$var wire 1 " reset $end
$var wire 32 r# read_address [31:0] $end
$var reg 32 s# instruction_out [31:0] $end
$upscope $end
$scope module JtypeEMux $end
$var wire 32 t# A [31:0] $end
$var wire 32 u# B [31:0] $end
$var wire 1 \ select $end
$var wire 32 v# Mux_out [31:0] $end
$upscope $end
$scope module PCPlus4 $end
$var wire 32 w# in_2 [31:0] $end
$var wire 32 x# in_1 [31:0] $end
$var wire 32 y# Sum_out [31:0] $end
$upscope $end
$scope module Program_Counter_Fetch $end
$var wire 32 z# PC_in [31:0] $end
$var wire 1 ! clk $end
$var wire 1 " reset $end
$var reg 32 {# PC_out [31:0] $end
$upscope $end
$upscope $end
$scope module writeBack_cycle_Imp $end
$var wire 32 |# ALUOutM [31:0] $end
$var wire 6 }# ALUSelectM [5:0] $end
$var wire 32 ~# DataMemOutM [31:0] $end
$var wire 1 W JtypeM $end
$var wire 1 Q MemReadM $end
$var wire 1 5 RegWrite2FU $end
$var wire 1 = RegWriteD $end
$var wire 1 7 RegWriteM $end
$var wire 32 !$ ResultOut2E [31:0] $end
$var wire 5 "$ WriteAddress2FU [4:0] $end
$var wire 5 #$ WriteAddressD [4:0] $end
$var wire 5 $$ WriteAddressM [4:0] $end
$var wire 32 %$ RegInDataD [31:0] $end
$var wire 32 &$ LoadConverterDataW [31:0] $end
$var wire 32 '$ Load2AdderW [31:0] $end
$var wire 32 ($ Adder2Mux [31:0] $end
$scope module AdderW $end
$var wire 32 )$ in_2 [31:0] $end
$var wire 32 *$ in_1 [31:0] $end
$var wire 32 +$ Sum_out [31:0] $end
$upscope $end
$scope module LoadConverterW $end
$var wire 6 ,$ aluSelect [5:0] $end
$var wire 32 -$ inputData [31:0] $end
$var reg 32 .$ outputData [31:0] $end
$upscope $end
$scope module Mux1 $end
$var wire 32 /$ A [31:0] $end
$var wire 32 0$ B [31:0] $end
$var wire 1 Q select $end
$var wire 32 1$ Mux_out [31:0] $end
$upscope $end
$scope module Mux2 $end
$var wire 32 2$ A [31:0] $end
$var wire 32 3$ B [31:0] $end
$var wire 1 W select $end
$var wire 32 4$ Mux_out [31:0] $end
$upscope $end
$upscope $end
$upscope $end
$scope task display_state $end
$var integer 32 5$ i [31:0] $end
$upscope $end
$upscope $end
$enddefinitions $end
#0
$dumpvars
bx 5$
b0 4$
b0 3$
b100 2$
b0 1$
b0 0$
b0 /$
b0 .$
b0 -$
b0 ,$
b100 +$
b0 *$
b100 )$
b100 ($
b0 '$
b0 &$
b0 %$
b0 $$
b0 #$
b0 "$
b0 !$
b0 ~#
b0 }#
b0 |#
b0 {#
b100 z#
b100 y#
b0 x#
b100 w#
b0 v#
b0 u#
b0 t#
bx s#
b0 r#
b0 q#
b100 p#
b100 o#
bx n#
b0 m#
b100 l#
b0 k#
b100 j#
b0 i#
b0 h#
bx g#
b0 f#
b0 e#
b0 d#
b0 c#
b0 b#
b0 a#
b0 `#
b0 _#
b0 ^#
b0 ]#
b0 \#
b0 [#
b0 Z#
b0 Y#
b0 X#
b0 W#
b0 V#
b0 U#
b0 T#
b0 S#
b0 R#
b0 Q#
b0 P#
b0 O#
b0 N#
b0 M#
b0 L#
b0 K#
b0 J#
b0 I#
b0 H#
b0 G#
b0 F#
b0 E#
b0 D#
b0 C#
b0 B#
b0 A#
b0 @#
b0 ?#
b0 >#
b0 =#
b0 <#
b0 ;#
b0 :#
b0 9#
b0 8#
b0 7#
bx 6#
b0 5#
b0 4#
b0 3#
b0 2#
b0 1#
b0 0#
b0 /#
b0 .#
b0 -#
b0 ,#
b0 +#
b0 *#
b0 )#
b0 (#
b0 '#
b0 &#
b0 %#
b0 $#
b0 ##
b0 "#
b0 !#
b0 ~"
b0 }"
b0 |"
b0 {"
b0 z"
b0 y"
b0 x"
b0 w"
b0 v"
b0 u"
b0 t"
b0 s"
b0 r"
b0 q"
b0 p"
b100000 o"
b0 n"
b0 m"
b0 l"
b0 k"
b0 j"
b0 i"
b0 h"
b0 g"
b0 f"
b0 e"
b0 d"
b0 c"
b0 b"
b0 a"
b0 `"
b0 _"
b0 ^"
b0 ]"
b0 \"
b0 ["
b0 Z"
b0 Y"
b0 X"
b0 W"
b0 V"
b0 U"
b1000000 T"
b0 S"
b0 R"
b0 Q"
b0 P"
b0 O"
b0 N"
b0 M"
b0 L"
b0 K"
b0 J"
b0 I"
b0 H"
b0 G"
b0 F"
b0 E"
b0 D"
b0 C"
b0 B"
b0 A"
b0 @"
b0 ?"
b0 >"
b0 ="
b0 <"
b0 ;"
b0 :"
bx 9"
b0 8"
b0 7"
b0 6"
b0 5"
b0 4"
b0 3"
b0 2"
b0 1"
b0 0"
b0 /"
b0 ."
b0 -"
b0 ,"
b0 +"
b0 *"
b0 )"
b0 ("
b0 '"
b0 &"
b0 %"
b0 $"
b0 #"
b0 ""
b0 !"
b0 ~
b0 }
b0 |
b0 {
b0 z
b0 y
b0 x
b0 w
b0 v
b0 u
b0 t
b0 s
b0 r
b0 q
b0 p
b0 o
b0 n
b0 m
b0 l
b0 k
b0 j
0i
0h
0g
b0 f
b0 e
b0 d
b0 c
b0 b
b0 a
0`
0_
bx ^
b0 ]
0\
0[
0Z
0Y
0X
0W
0V
0U
0T
0S
0R
0Q
0P
0O
0N
0M
0L
b0 K
b0 J
b0 I
b0 H
b0 G
b0 F
b0 E
0D
0C
b0 B
b0 A
b0 @
b0 ?
b0 >
0=
0<
0;
0:
09
08
07
06
05
b0 4
b0 3
b0 2
b0 1
b0 0
b0 /
b0 .
b0 -
b0 ,
b0 +
b0 *
b0 )
b0 (
b0 '
b0 &
b0 %
b0 $
b0 #
1"
0!
$end
#5000
b0 ^
b0 9"
b0 g#
b0 n#
b0 s#
b1000000 T"
b100000 o"
1!
#10000
0!
#15000
b1000000 T"
b100000 o"
1!
#20000
0!
0"
#25000
b1000 l#
b1000 o#
b1000 z#
b1000 j#
b1000 p#
b1000 y#
b100 K
b100 8"
b100 h#
b100 k#
b100 r#
b100 x#
b100 {#
b1010000000000000010010011 ^
b1010000000000000010010011 9"
b1010000000000000010010011 g#
b1010000000000000010010011 n#
b1010000000000000010010011 s#
b10000 5$
1!
#30000
0!
#35000
b1100 l#
b1100 o#
b1100 z#
b1 )
b1 ("
b1 Z"
b10100 /
b10100 )"
b10100 ["
b10100 j"
b10011 n
b10011 /"
b10011 `"
b10011 e"
1;
1_
b10011 b"
b10100 a
b10100 ."
b10100 _"
b10100 h"
b10011 g"
b1100 j#
b1100 p#
b1100 y#
b1000 K
b1000 8"
b1000 h#
b1000 k#
b1000 r#
b1000 x#
b1000 {#
b1010000000000000010010011 ]
b1010000000000000010010011 :"
b1010000000000000010010011 W"
b1010000000000000010010011 a"
b1010000000000000010010011 f"
b100 I
b100 -"
b100 U"
b100 H
b100 ;"
b100 V"
b111100000000000100010011 ^
b111100000000000100010011 9"
b111100000000000100010011 g#
b111100000000000100010011 n#
b111100000000000100010011 s#
b10000 5$
1!
#40000
0!
#45000
b10100 s
b10100 z
b10100 )#
b10100 2#
b10100 ,#
b10100 I#
b10100 '#
b10100 -#
b10100 4#
b10100 9#
b10100 =#
b10100 C#
b10100 G#
b10100 L#
b10100 U#
b10 )
b10 ("
b10 Z"
b1111 /
b1111 )"
b1111 ["
b1111 j"
1;
1_
b10011 n
b10011 /"
b10011 `"
b10011 e"
b1111 a
b1111 ."
b1111 _"
b1111 h"
b101000 "#
b101000 O#
b101000 b#
b10000 l#
b10000 o#
b10000 z#
b111100000000000100010011 ]
b111100000000000100010011 :"
b111100000000000100010011 W"
b111100000000000100010011 a"
b111100000000000100010011 f"
b1000 I
b1000 -"
b1000 U"
b1000 H
b1000 ;"
b1000 V"
b10100 .
b10100 ""
b10100 |"
b10100 0
b10100 6"
b10100 {"
b101100 E
b101100 x
b101100 &#
b101100 P#
b100 J
b100 2"
b100 v"
b100 N#
b100 Q#
b10100 b
b10100 1"
b10100 u"
b10100 T#
b10100 a#
1`
b10011 l
b10011 y
b10011 r"
b10011 o
b10011 0"
b10011 q"
b10011 *#
b10011 3#
b10011 7#
b10011 ;#
b10011 ?#
b10011 F#
b10011 J#
b10011 c#
19
1<
b1 '
b1 v
b1 ~"
b1 *
b1 7"
b1 }"
b10000 j#
b10000 p#
b10000 y#
b1100 K
b1100 8"
b1100 h#
b1100 k#
b1100 r#
b1100 x#
b1100 {#
b1000001000000110110011 ^
b1000001000000110110011 9"
b1000001000000110110011 g#
b1000001000000110110011 n#
b1000001000000110110011 s#
b10000 5$
1!
#50000
0!
#55000
b1111 s
b1111 z
b1111 )#
b1111 2#
b1111 ,#
b1111 I#
b10100 l#
b10100 o#
b10100 z#
b101100 m#
b101100 q#
b101100 v#
b1111 '#
b1111 -#
b1111 4#
b1111 9#
b1111 =#
b1111 C#
b1111 G#
b1111 L#
b1111 U#
b11110 "#
b11110 O#
b11110 b#
b11 )
b11 ("
b11 Z"
b1 2
b1 *"
b1 \"
b10 /
b10 )"
b10 ["
b1 i"
b10 j"
1;
0_
b11100 n
b11100 /"
b11100 `"
b11100 e"
b110011 b"
b0 a
b0 ."
b0 _"
b0 h"
b110011 g"
b10100 j#
b10100 p#
b10100 y#
b10000 K
b10000 8"
b10000 h#
b10000 k#
b10000 r#
b10000 x#
b10000 {#
b101100 G
b101100 K"
b101100 i#
b101100 u#
b101100 F
b101100 }
b101100 J"
b10100 u
b10100 F"
b10100 f#
b10100 t#
b10100 q
b10100 ?"
b10100 G"
b10100 p
b10100 D"
b10100 p"
b10100 X#
b10100 ]#
b10100 t
b10100 {
b10100 E"
b10100 R"
b10011 j
b10011 >"
b10011 I"
b10011 m
b10011 |
b10011 H"
16
18
1:
b1 $
b1 <"
b1 O"
b1 &
b1 %"
b1 M"
b1 (
b1 !"
b1 N"
b1111 .
b1111 ""
b1111 |"
b1111 0
b1111 6"
b1111 {"
b100110 E
b100110 x
b100110 &#
b100110 P#
b1000 J
b1000 2"
b1000 v"
b1000 N#
b1000 Q#
b1111 b
b1111 1"
b1111 u"
b1111 T#
b1111 a#
b10 '
b10 v
b10 ~"
b10 *
b10 7"
b10 }"
b1000001000000110110011 ]
b1000001000000110110011 :"
b1000001000000110110011 W"
b1000001000000110110011 a"
b1000001000000110110011 f"
b1100 I
b1100 -"
b1100 U"
b1100 H
b1100 ;"
b1100 V"
b1000000001000011000001000110011 ^
b1000000001000011000001000110011 9"
b1000000001000011000001000110011 g#
b1000000001000011000001000110011 n#
b1000000001000011000001000110011 s#
b10000 5$
1!
#60000
0!
#65000
b100101100 @#
b100101100 A#
b100101100 B#
b1111 $#
b1111 V#
b1111 _#
b10100 (#
b10100 .#
b10100 5#
b10100 8#
b10100 <#
b10100 D#
b10100 H#
b10100 K#
b10100 R#
b10100 %#
b10100 S#
b10100 Z#
b1 d
b1 '"
b1 s"
b1 Y#
b10 c
b10 &"
b10 t"
b10 ^#
b100011 s
b100011 z
b100011 )#
b100011 2#
b100011 ,#
b100011 I#
b10100 >
b10100 X"
b10100 m"
b10100 %$
b10100 4$
b100 )
b100 ("
b100 Z"
b11 2
b11 *"
b11 \"
b11 i"
1;
b100100 n
b100100 /"
b100100 `"
b100100 e"
b100000 c"
b1111 '#
b1111 -#
b1111 4#
b1111 9#
b1111 =#
b1111 C#
b1111 G#
b1111 L#
b1111 U#
b0 "#
b0 O#
b0 b#
b100110 m#
b100110 q#
b100110 v#
b11000 ($
b11000 +$
b11000 2$
b10100 '$
b10100 *$
b10100 .$
b10100 3$
b10100 4
b10100 ##
b10100 [#
b10100 `#
b10100 !$
b10100 &$
b10100 -$
b10100 1$
b11000 l#
b11000 o#
b11000 z#
b1000000001000011000001000110011 ]
b1000000001000011000001000110011 :"
b1000000001000011000001000110011 W"
b1000000001000011000001000110011 a"
b1000000001000011000001000110011 f"
b10000 I
b10000 -"
b10000 U"
b10000 H
b10000 ;"
b10000 V"
b10 .
b10 ""
b10 |"
b10 0
b10 6"
b10 {"
b1 1
b1 #"
b1 z"
b1 3
b1 5"
b1 y"
b1100 E
b1100 x
b1100 &#
b1100 P#
b1100 J
b1100 2"
b1100 v"
b1100 N#
b1100 Q#
b0 b
b0 1"
b0 u"
b0 T#
b0 a#
0`
b11100 l
b11100 y
b11100 r"
b11100 o
b11100 0"
b11100 q"
b11100 *#
b11100 3#
b11100 7#
b11100 ;#
b11100 ?#
b11100 F#
b11100 J#
b11100 c#
b11 '
b11 v
b11 ~"
b11 *
b11 7"
b11 }"
b100110 G
b100110 K"
b100110 i#
b100110 u#
b100110 F
b100110 }
b100110 J"
b1111 u
b1111 F"
b1111 f#
b1111 t#
b1111 q
b1111 ?"
b1111 G"
b1111 p
b1111 D"
b1111 p"
b1111 X#
b1111 ]#
b1111 t
b1111 {
b1111 E"
b1111 R"
b10 $
b10 <"
b10 O"
b10 &
b10 %"
b10 M"
b10 (
b10 !"
b10 N"
b1 +
b1 Y"
b1 n"
b1 #$
b1 #
b1 $"
b1 "$
b1 %
b1 C"
b1 $$
b10011 k
b10011 A"
b10011 }#
b10011 ,$
b10100 r
b10100 @"
b10100 |#
b10100 0$
15
1=
17
b11000 j#
b11000 p#
b11000 y#
b10100 K
b10100 8"
b10100 h#
b10100 k#
b10100 r#
b10100 x#
b10100 {#
b1000000001100001000001010110011 ^
b1000000001100001000001010110011 9"
b1000000001100001000001010110011 g#
b1000000001100001000001010110011 n#
b1000000001100001000001010110011 s#
b10000 5$
1!
#70000
0!
