Hazard Handled/top_cpu.vcd
$date
	Fri Jul  4 11:47:52 2025
$end
$version
	Icarus Verilog
$end
$timescale
	1ps
$end
$scope module top_cpu_tb $end
$var reg 1 ! clk $end
$var reg 1 " reset $end
$scope module uut $end
$var wire 1 ! clk $end
$var wire 1 " reset $end
$var wire 5 # WriteAddressW2FU [4:0] $end
$var wire 5 $ WriteAddressW [4:0] $end
$var wire 5 % WriteAddressM2FU [4:0] $end
$var wire 5 & WriteAddressM [4:0] $end
$var wire 5 ' WriteAddressE [4:0] $end
$var wire 5 ( WriteAddress [4:0] $end
$var wire 32 ) StoreCounterOutM [31:0] $end
$var wire 5 * Rs2E2FU [4:0] $end
$var wire 5 + Rs2E [4:0] $end
$var wire 5 , Rs1E2FU [4:0] $end
$var wire 5 - Rs1E [4:0] $end
$var wire 32 . ResultOutfromWB [31:0] $end
$var wire 1 / RegWriteW2FU $end
$var wire 1 0 RegWriteW $end
$var wire 1 1 RegWriteM2FU $end
$var wire 1 2 RegWriteM $end
$var wire 1 3 RegWriteE $end
$var wire 1 4 RegWrite $end
$var wire 32 5 RegInData [31:0] $end
$var wire 32 6 ReadOut2E [31:0] $end
$var wire 32 7 ReadOut1E [31:0] $end
$var wire 1 8 PCSelectE $end
$var wire 32 9 PCPlusImmM [31:0] $end
$var wire 32 : PCPlusImm [31:0] $end
$var wire 32 ; PCE [31:0] $end
$var wire 32 < PCD [31:0] $end
$var wire 1 = MemWriteM $end
$var wire 1 > MemWriteE $end
$var wire 1 ? MemReadW $end
$var wire 1 @ MemReadM $end
$var wire 1 A MemReadE $end
$var wire 1 B JtypeW $end
$var wire 1 C JtypeM $end
$var wire 1 D JtypeE $end
$var wire 1 E Jtype $end
$var wire 32 F InstrD [31:0] $end
$var wire 1 G ImmSelectE $end
$var wire 32 H ImmGenOutE [31:0] $end
$var wire 2 I ForwardBE [1:0] $end
$var wire 2 J ForwardAE [1:0] $end
$var wire 32 K DataMemOutW [31:0] $end
$var wire 1 L BranchM $end
$var wire 1 M Branch $end
$var wire 6 N ALUSelectW [5:0] $end
$var wire 6 O ALUSelectM [5:0] $end
$var wire 6 P ALUSelectE [5:0] $end
$var wire 32 Q ALUOutfromM [31:0] $end
$var wire 32 R ALUOutW [31:0] $end
$var wire 32 S ALUOutM [31:0] $end
$var wire 32 T ALUOut [31:0] $end
$var reg 32 U ALUOutE2M [31:0] $end
$var reg 32 V ALUOutM2W [31:0] $end
$var reg 6 W ALUSelectD2E [5:0] $end
$var reg 6 X ALUSelectE2M [5:0] $end
$var reg 6 Y ALUSelectM2W [5:0] $end
$var reg 1 Z BranchE2M $end
$var reg 32 [ DataMemOutM2W [31:0] $end
$var reg 32 \ ImmGenOutD2E [31:0] $end
$var reg 1 ] ImmSelectD2E $end
$var reg 32 ^ InstrF2D [31:0] $end
$var reg 1 _ JtypeD2E $end
$var reg 1 ` JtypeE2M $end
$var reg 1 a JtypeM2W $end
$var reg 1 b MemReadD2E $end
$var reg 1 c MemReadE2M $end
$var reg 1 d MemReadM2W $end
$var reg 1 e MemWriteD2E $end
$var reg 1 f MemWriteE2M $end
$var reg 32 g PCD2E [31:0] $end
$var reg 32 h PCF2D [31:0] $end
$var reg 32 i PCPlusImmE2M [31:0] $end
$var reg 1 j PCSelectD2E $end
$var reg 32 k ReadOut1D2E [31:0] $end
$var reg 32 l ReadOut2D2E [31:0] $end
$var reg 1 m RegWriteD2E $end
$var reg 1 n RegWriteE2M $end
$var reg 1 o RegWriteM2W $end
$var reg 5 p Rs1D2E [4:0] $end
$var reg 5 q Rs2D2E [4:0] $end
$var reg 32 r StoreCounterOutE2M [31:0] $end
$var reg 5 s WriteAddressD2E [4:0] $end
$var reg 5 t WriteAddressE2M [4:0] $end
$var reg 5 u WriteAddressM2W [4:0] $end
$scope module FU $end
$var wire 1 " reset $end
$var wire 5 v Rs2_E [4:0] $end
$var wire 5 w Rs1_E [4:0] $end
$var wire 1 / RegWriteW $end
$var wire 1 1 RegWriteM $end
$var wire 5 x RD_W [4:0] $end
$var wire 5 y RD_M [4:0] $end
$var wire 2 z ForwardBE [1:0] $end
$var wire 2 { ForwardAE [1:0] $end
$upscope $end
$scope module Mem_cycle_Imp $end
$var wire 32 | ALUOut2E [31:0] $end
$var wire 32 } ALUOutE [31:0] $end
$var wire 32 ~ ALUOutF [31:0] $end
$var wire 32 !" ALUOutW [31:0] $end
$var wire 6 "" ALUSelectE [5:0] $end
$var wire 6 #" ALUSelectW [5:0] $end
$var wire 1 Z BranchE $end
$var wire 1 M BranchF $end
$var wire 1 ` JtypeE $end
$var wire 1 E JtypeF $end
$var wire 1 B JtypeW $end
$var wire 1 c MemReadE $end
$var wire 1 ? MemReadW $end
$var wire 1 f MemWriteE $end
$var wire 32 $" PCPlusImmE [31:0] $end
$var wire 32 %" PCPlusImmF [31:0] $end
$var wire 1 1 RegWrite2FU $end
$var wire 1 n RegWriteE $end
$var wire 1 0 RegWriteW $end
$var wire 32 &" StoreConverterE [31:0] $end
$var wire 5 '" WriteAddress2FU [4:0] $end
$var wire 5 (" WriteAddressE [4:0] $end
$var wire 5 )" WriteAddressW [4:0] $end
$var wire 1 ! clk $end
$var wire 1 " reset $end
$var wire 32 *" DataMemOutW [31:0] $end
$scope module DataMemoryMem $end
$var wire 1 c MemRead $end
$var wire 1 f MemWrite $end
$var wire 32 +" Write_data [31:0] $end
$var wire 1 ! clk $end
$var wire 32 ," read_address [31:0] $end
$var wire 1 " reset $end
$var wire 32 -" MemData_out [31:0] $end
$scope begin $ivl_for_loop0 $end
$var integer 32 ." k [31:0] $end
$upscope $end
$upscope $end
$upscope $end
$scope module decode_cycle_Imp $end
$var wire 32 /" PCE [31:0] $end
$var wire 32 0" PCF [31:0] $end
$var wire 1 ! clk $end
$var wire 32 1" instructionF [31:0] $end
$var wire 1 " reset $end
$var wire 32 2" writeDataW [31:0] $end
$var wire 5 3" WriteAddressW [4:0] $end
$var wire 5 4" WriteAddressE [4:0] $end
$var wire 5 5" Rs2E [4:0] $end
$var wire 5 6" Rs1E [4:0] $end
$var wire 1 4 RegWriteW $end
$var wire 1 3 RegWriteE $end
$var wire 32 7" ReadOut2E [31:0] $end
$var wire 32 8" ReadOut1E [31:0] $end
$var wire 1 8 PCSelectE $end
$var wire 1 > MemWriteE $end
$var wire 1 A MemReadE $end
$var wire 1 D JtypeE $end
$var wire 1 G ImmSelectE $end
$var wire 32 9" ImmGenOutE [31:0] $end
$var wire 6 :" ALUSelectE [5:0] $end
$scope module ControlUnitD $end
$var wire 32 ;" instruction [31:0] $end
$var wire 7 <" opcode [6:0] $end
$var wire 7 =" funct7 [6:0] $end
$var wire 3 >" funct3 [2:0] $end
$var reg 1 G ImmSelect $end
$var reg 1 D Jtype $end
$var reg 1 A MemRead $end
$var reg 1 > MemWrite $end
$var reg 1 8 PCSelect $end
$var reg 6 ?" aluSelect [5:0] $end
$var reg 1 3 regWrite $end
$upscope $end
$scope module ImmGen_D $end
$var wire 32 @" instr [31:0] $end
$var wire 7 A" opcode [6:0] $end
$var reg 32 B" immOut [31:0] $end
$upscope $end
$scope module Reg_File_D $end
$var wire 5 C" Rs1 [4:0] $end
$var wire 5 D" Rs2 [4:0] $end
$var wire 1 ! clk $end
$var wire 1 " reset $end
$var wire 32 E" read_data2 [31:0] $end
$var wire 32 F" read_data1 [31:0] $end
$var wire 32 G" Write_data [31:0] $end
$var wire 1 4 RegWrite $end
$var wire 5 H" Rd [4:0] $end
$var integer 32 I" i [31:0] $end
$upscope $end
$upscope $end
$scope module execution_cycle_Imp $end
$var wire 32 J" ALUOutfromM [31:0] $end
$var wire 6 K" ALUSelectD [5:0] $end
$var wire 6 L" ALUSelectM [5:0] $end
$var wire 2 M" ForwardAE [1:0] $end
$var wire 2 N" ForwardBE [1:0] $end
$var wire 32 O" ImmGenOutD [31:0] $end
$var wire 1 ] ImmSelectD $end
$var wire 1 _ JtypeD $end
$var wire 1 C JtypeM $end
$var wire 1 b MemReadD $end
$var wire 1 @ MemReadM $end
$var wire 1 e MemWriteD $end
$var wire 1 = MemWriteM $end
$var wire 32 P" PCD [31:0] $end
$var wire 1 j PCSelectD $end
$var wire 32 Q" RegOut1D [31:0] $end
$var wire 32 R" RegOut2D [31:0] $end
$var wire 1 m RegWriteD $end
$var wire 1 2 RegWriteM $end
$var wire 5 S" Rs1D [4:0] $end
$var wire 5 T" Rs1FU [4:0] $end
$var wire 5 U" Rs2D [4:0] $end
$var wire 5 V" Rs2FU [4:0] $end
$var wire 5 W" WriteAddressD [4:0] $end
$var wire 5 X" WriteAddressM [4:0] $end
$var wire 32 Y" StoreCounterOutM [31:0] $end
$var wire 32 Z" ShifterOutE [31:0] $end
$var wire 32 [" ResultOutfromWB [31:0] $end
$var wire 32 \" RegOut2Fwd [31:0] $end
$var wire 32 ]" RegOut1Fwd [31:0] $end
$var wire 32 ^" PCPlusImmM [31:0] $end
$var wire 32 _" Mux2EdashOut [31:0] $end
$var wire 32 `" Mux1outE [31:0] $end
$var wire 1 L BranchM $end
$var wire 32 a" ALUOutM [31:0] $end
$scope module ALUE $end
$var wire 6 b" aluSelect [5:0] $end
$var wire 32 c" utype_result [31:0] $end
$var wire 32 d" rtype_result [31:0] $end
$var wire 32 e" rs2 [31:0] $end
$var wire 32 f" rs1 [31:0] $end
$var wire 32 g" muldiv_result [31:0] $end
$var wire 32 h" loadstore_result [31:0] $end
$var wire 32 i" jtype_result [31:0] $end
$var wire 1 L branch_taken $end
$var reg 32 j" result [31:0] $end
$scope module btype_inst $end
$var wire 6 k" aluSelect [5:0] $end
$var wire 32 l" rs2 [31:0] $end
$var wire 32 m" rs1 [31:0] $end
$var reg 1 L branch_taken $end
$var reg 32 n" result [31:0] $end
$upscope $end
$scope module jtype_inst $end
$var wire 6 o" aluSelect [5:0] $end
$var wire 32 p" pc [31:0] $end
$var wire 32 q" imm [31:0] $end
$var reg 32 r" next_pc [31:0] $end
$upscope $end
$scope module loadstore $end
$var wire 6 s" aluSelect [5:0] $end
$var wire 32 t" rs1 [31:0] $end
$var wire 32 u" imm [31:0] $end
$var reg 32 v" address [31:0] $end
$upscope $end
$scope module muldiv_inst $end
$var wire 6 w" aluSelect [5:0] $end
$var wire 64 x" unsigned_product [63:0] $end
$var wire 64 y" signed_product1 [63:0] $end
$var wire 64 z" signed_product [63:0] $end
$var wire 32 {" rs2 [31:0] $end
$var wire 32 |" rs1 [31:0] $end
$var reg 32 }" result [31:0] $end
$upscope $end
$scope module rtype $end
$var wire 6 ~" aluSelect [5:0] $end
$var wire 32 !# b [31:0] $end
$var wire 32 "# a [31:0] $end
$var reg 32 ## result [31:0] $end
$upscope $end
$scope module utype $end
$var wire 6 $# aluSelect [5:0] $end
$var wire 32 %# pc [31:0] $end
$var wire 32 &# imm_u [31:0] $end
$var reg 32 '# result [31:0] $end
$upscope $end
$upscope $end
$scope module AdderE $end
$var wire 32 (# in_1 [31:0] $end
$var wire 32 )# in_2 [31:0] $end
$var wire 32 *# Sum_out [31:0] $end
$upscope $end
$scope module Mux1E $end
$var wire 32 +# A [31:0] $end
$var wire 1 j select $end
$var wire 32 ,# Mux_out [31:0] $end
$var wire 32 -# B [31:0] $end
$upscope $end
$scope module Mux2E $end
$var wire 32 .# A [31:0] $end
$var wire 1 ] select $end
$var wire 32 /# Mux_out [31:0] $end
$var wire 32 0# B [31:0] $end
$upscope $end
$scope module Mux_Reg1Fwd $end
$var wire 32 1# in1 [31:0] $end
$var wire 32 2# in3 [31:0] $end
$var wire 2 3# select [1:0] $end
$var wire 32 4# out [31:0] $end
$var wire 32 5# in2 [31:0] $end
$upscope $end
$scope module Mux_Reg2Fwd $end
$var wire 32 6# in1 [31:0] $end
$var wire 32 7# in3 [31:0] $end
$var wire 2 8# select [1:0] $end
$var wire 32 9# out [31:0] $end
$var wire 32 :# in2 [31:0] $end
$upscope $end
$scope module ShiftLeft1E $end
$var wire 32 ;# in [31:0] $end
$var wire 32 <# out [31:0] $end
$upscope $end
$scope module StoreConverterE $end
$var wire 6 =# aluSelect [5:0] $end
$var wire 32 ># inputData [31:0] $end
$var reg 32 ?# outputData [31:0] $end
$upscope $end
$upscope $end
$scope module fetch_cycle_Imp $end
$var wire 32 @# ALUOutM [31:0] $end
$var wire 1 M BranchM $end
$var wire 32 A# InstrD [31:0] $end
$var wire 1 E JtypeM $end
$var wire 32 B# PCD [31:0] $end
$var wire 32 C# PCPlusImmM [31:0] $end
$var wire 1 ! clk $end
$var wire 1 " reset $end
$var wire 32 D# PCPlus4F [31:0] $end
$var wire 32 E# PCOutF [31:0] $end
$var wire 32 F# PCInF [31:0] $end
$var wire 32 G# JtypeMuxOutF [31:0] $end
$var wire 32 H# InstrF [31:0] $end
$scope module BranchEMux $end
$var wire 1 M select $end
$var wire 32 I# Mux_out [31:0] $end
$var wire 32 J# B [31:0] $end
$var wire 32 K# A [31:0] $end
$upscope $end
$scope module Instr_Mem $end
$var wire 1 ! clk $end
$var wire 1 " reset $end
$var wire 32 L# read_address [31:0] $end
$var reg 32 M# instruction_out [31:0] $end
$upscope $end
$scope module JtypeEMux $end
$var wire 32 N# A [31:0] $end
$var wire 32 O# B [31:0] $end
$var wire 1 E select $end
$var wire 32 P# Mux_out [31:0] $end
$upscope $end
$scope module PCPlus4 $end
$var wire 32 Q# in_2 [31:0] $end
$var wire 32 R# in_1 [31:0] $end
$var wire 32 S# Sum_out [31:0] $end
$upscope $end
$scope module Program_Counter_Fetch $end
$var wire 32 T# PC_in [31:0] $end
$var wire 1 ! clk $end
$var wire 1 " reset $end
$var reg 32 U# PC_out [31:0] $end
$upscope $end
$upscope $end
$scope module writeBack_cycle_Imp $end
$var wire 32 V# ALUOutM [31:0] $end
$var wire 6 W# ALUSelectM [5:0] $end
$var wire 32 X# DataMemOutM [31:0] $end
$var wire 1 a JtypeM $end
$var wire 1 d MemReadM $end
$var wire 1 / RegWrite2FU $end
$var wire 1 4 RegWriteD $end
$var wire 1 o RegWriteM $end
$var wire 32 Y# ResultOut2E [31:0] $end
$var wire 5 Z# WriteAddress2FU [4:0] $end
$var wire 5 [# WriteAddressD [4:0] $end
$var wire 5 \# WriteAddressM [4:0] $end
$var wire 32 ]# RegInDataD [31:0] $end
$var wire 32 ^# LoadConverterDataW [31:0] $end
$var wire 32 _# Load2AdderW [31:0] $end
$var wire 32 `# Adder2Mux [31:0] $end
$scope module AdderW $end
$var wire 32 a# in_2 [31:0] $end
$var wire 32 b# in_1 [31:0] $end
$var wire 32 c# Sum_out [31:0] $end
$upscope $end
$scope module LoadConverterW $end
$var wire 6 d# aluSelect [5:0] $end
$var wire 32 e# inputData [31:0] $end
$var reg 32 f# outputData [31:0] $end
$upscope $end
$scope module Mux1 $end
$var wire 32 g# A [31:0] $end
$var wire 32 h# B [31:0] $end
$var wire 1 d select $end
$var wire 32 i# Mux_out [31:0] $end
$upscope $end
$scope module Mux2 $end
$var wire 32 j# A [31:0] $end
$var wire 32 k# B [31:0] $end
$var wire 1 a select $end
$var wire 32 l# Mux_out [31:0] $end
$upscope $end
$upscope $end
$upscope $end
$scope task display_state $end
$var integer 32 m# i [31:0] $end
$upscope $end
$upscope $end
$enddefinitions $end
#0
$dumpvars
bx m#
b0 l#
b0 k#
b100 j#
b0 i#
b0 h#
b0 g#
b0 f#
b0 e#
b0 d#
b100 c#
b0 b#
b100 a#
b100 `#
b0 _#
b0 ^#
b0 ]#
b0 \#
b0 [#
b0 Z#
b0 Y#
b0 X#
b0 W#
b0 V#
b0 U#
b100 T#
b100 S#
b0 R#
b100 Q#
b0 P#
b0 O#
b0 N#
bx M#
b0 L#
b0 K#
b100 J#
b100 I#
bx H#
b0 G#
b100 F#
b0 E#
b100 D#
b0 C#
b0 B#
bx A#
b0 @#
b0 ?#
b0 >#
b0 =#
b0 <#
b0 ;#
b0 :#
b0 9#
b0 8#
b0 7#
b0 6#
b0 5#
b0 4#
b0 3#
b0 2#
b0 1#
b0 0#
b0 /#
b0 .#
b0 -#
b0 ,#
b0 +#
b0 *#
b0 )#
b0 (#
b0 '#
b0 &#
b0 %#
b0 $#
b0 ##
b0 "#
b0 !#
b0 ~"
b0 }"
b0 |"
b0 {"
b0 z"
b0 y"
b0 x"
b0 w"
b0 v"
b0 u"
b0 t"
b0 s"
b0 r"
b0 q"
b0 p"
b0 o"
bx n"
b0 m"
b0 l"
b0 k"
b0 j"
b0 i"
b0 h"
b0 g"
b0 f"
b0 e"
b0 d"
b0 c"
b0 b"
b0 a"
b0 `"
b0 _"
b0 ^"
b0 ]"
b0 \"
b0 ["
b0 Z"
b0 Y"
b0 X"
b0 W"
b0 V"
b0 U"
b0 T"
b0 S"
b0 R"
b0 Q"
b0 P"
b0 O"
b0 N"
b0 M"
b0 L"
b0 K"
b0 J"
b100000 I"
b0 H"
b0 G"
b0 F"
b0 E"
b0 D"
b0 C"
b0 B"
b0 A"
b0 @"
b0 ?"
b0 >"
b0 ="
b0 <"
b0 ;"
b0 :"
b0 9"
b0 8"
b0 7"
b0 6"
b0 5"
b0 4"
b0 3"
b0 2"
b0 1"
b0 0"
b0 /"
b1000000 ."
b0 -"
b0 ,"
b0 +"
b0 *"
b0 )"
b0 ("
b0 '"
b0 &"
b0 %"
b0 $"
b0 #"
b0 ""
b0 !"
b0 ~
b0 }
b0 |
b0 {
b0 z
b0 y
b0 x
b0 w
b0 v
b0 u
b0 t
b0 s
b0 r
b0 q
b0 p
0o
0n
0m
b0 l
b0 k
0j
b0 i
b0 h
b0 g
0f
0e
0d
0c
0b
0a
0`
0_
b0 ^
0]
b0 \
b0 [
0Z
b0 Y
b0 X
b0 W
b0 V
b0 U
b0 T
b0 S
b0 R
b0 Q
b0 P
b0 O
b0 N
0M
0L
b0 K
b0 J
b0 I
b0 H
0G
bx F
0E
0D
0C
0B
0A
0@
0?
0>
0=
b0 <
b0 ;
b0 :
b0 9
08
b0 7
b0 6
b0 5
04
03
02
01
00
0/
b0 .
b0 -
b0 ,
b0 +
b0 *
b0 )
b0 (
b0 '
b0 &
b0 %
b0 $
b0 #
1"
0!
$end
#5000
b0 F
b0 A#
b0 H#
b0 M#
b1000000 ."
b100000 I"
1!
#10000
0!
#15000
b1000000 ."
b100000 I"
1!
#20000
0!
0"
#25000
b1000 F#
b1000 I#
b1000 T#
b1000 D#
b1000 J#
b1000 S#
b100 <
b100 B#
b100 E#
b100 L#
b100 R#
b100 U#
b1010000000000000010010011 F
b1010000000000000010010011 A#
b1010000000000000010010011 H#
b1010000000000000010010011 M#
b10000 m#
1!
#30000
0!
#35000
b1100 F#
b1100 I#
b1100 T#
b1 '
b1 4"
b10100 +
b10100 5"
b10100 D"
b10011 P
b10011 :"
b10011 ?"
13
1G
b10011 <"
b10100 H
b10100 9"
b10100 B"
b10011 A"
b1100 D#
b1100 J#
b1100 S#
b1000 <
b1000 B#
b1000 E#
b1000 L#
b1000 R#
b1000 U#
b1010000000000000010010011 ^
b1010000000000000010010011 1"
b1010000000000000010010011 ;"
b1010000000000000010010011 @"
b100 ;
b100 /"
b100 h
b100 0"
b111100000000000100010011 F
b111100000000000100010011 A#
b111100000000000100010011 H#
b111100000000000100010011 M#
b10000 m#
1!
#40000
0!
#45000
b10100 S
b10100 a"
b10100 j"
b10100 d"
b10100 ##
b10100 _"
b10100 e"
b10100 l"
b10100 q"
b10100 u"
b10100 {"
b10100 !#
b10100 &#
b10100 /#
b10 '
b10 4"
b1111 +
b1111 5"
b1111 D"
13
1G
b10011 P
b10011 :"
b10011 ?"
b1111 H
b1111 9"
b1111 B"
b101000 Z"
b101000 )#
b101000 <#
b10000 F#
b10000 I#
b10000 T#
b111100000000000100010011 ^
b111100000000000100010011 1"
b111100000000000100010011 ;"
b111100000000000100010011 @"
b1000 ;
b1000 /"
b1000 h
b1000 0"
b10100 *
b10100 v
b10100 V"
b10100 q
b10100 U"
b101100 9
b101100 ^"
b101100 *#
b100 g
b100 P"
b100 (#
b100 +#
b10100 \
b10100 O"
b10100 .#
b10100 ;#
1]
b10011 O
b10011 L"
b10011 W
b10011 K"
b10011 b"
b10011 k"
b10011 o"
b10011 s"
b10011 w"
b10011 ~"
b10011 $#
b10011 =#
12
1m
b1 &
b1 X"
b1 s
b1 W"
b10000 D#
b10000 J#
b10000 S#
b1100 <
b1100 B#
b1100 E#
b1100 L#
b1100 R#
b1100 U#
b1000001000000110110011 F
b1000001000000110110011 A#
b1000001000000110110011 H#
b1000001000000110110011 M#
b10000 m#
1!
#50000
0!
#55000
b1111 S
b1111 a"
b1111 j"
b1111 d"
b1111 ##
b10100 F#
b10100 I#
b10100 T#
b101100 G#
b101100 K#
b101100 P#
b1111 _"
b1111 e"
b1111 l"
b1111 q"
b1111 u"
b1111 {"
b1111 !#
b1111 &#
b1111 /#
b11110 Z"
b11110 )#
b11110 <#
b11 '
b11 4"
b1 -
b1 6"
b10 +
b10 5"
b1 C"
b10 D"
13
0G
b11100 P
b11100 :"
b11100 ?"
b110011 <"
b0 H
b0 9"
b0 B"
b110011 A"
b10100 D#
b10100 J#
b10100 S#
b10000 <
b10000 B#
b10000 E#
b10000 L#
b10000 R#
b10000 U#
b101100 :
b101100 %"
b101100 C#
b101100 O#
b101100 i
b101100 $"
b10100 T
b10100 ~
b10100 @#
b10100 N#
b10100 R
b10100 !"
b10100 Q
b10100 |
b10100 J"
b10100 2#
b10100 7#
b10100 U
b10100 }
b10100 ,"
b10011 N
b10011 #"
b10011 X
b10011 ""
10
11
1n
b1 $
b1 )"
b1 %
b1 y
b1 '"
b1 t
b1 ("
b1111 *
b1111 v
b1111 V"
b1111 q
b1111 U"
b100110 9
b100110 ^"
b100110 *#
b1000 g
b1000 P"
b1000 (#
b1000 +#
b1111 \
b1111 O"
b1111 .#
b1111 ;#
b10 &
b10 X"
b10 s
b10 W"
b1000001000000110110011 ^
b1000001000000110110011 1"
b1000001000000110110011 ;"
b1000001000000110110011 @"
b1100 ;
b1100 /"
b1100 h
b1100 0"
b1000000001000011000001000110011 F
b1000000001000011000001000110011 A#
b1000000001000011000001000110011 H#
b1000000001000011000001000110011 M#
b10000 m#
1!
#60000
0!
#65000
b100101100 x"
b100101100 y"
b100101100 z"
b1111 \"
b1111 0#
b1111 9#
b10100 `"
b10100 f"
b10100 m"
b10100 p"
b10100 t"
b10100 |"
b10100 "#
b10100 %#
b10100 ,#
b10100 ]"
b10100 -#
b10100 4#
b1 J
b1 {
b1 M"
b1 3#
b10 I
b10 z
b10 N"
b10 8#
b100011 S
b100011 a"
b100011 j"
b100011 d"
b100011 ##
b10100 5
b10100 2"
b10100 G"
b10100 ]#
b10100 l#
b100 '
b100 4"
b11 -
b11 6"
b11 C"
13
b100100 P
b100100 :"
b100100 ?"
b100000 ="
b1111 _"
b1111 e"
b1111 l"
b1111 q"
b1111 u"
b1111 {"
b1111 !#
b1111 &#
b1111 /#
b0 Z"
b0 )#
b0 <#
b100110 G#
b100110 K#
b100110 P#
b11000 `#
b11000 c#
b11000 j#
b10100 _#
b10100 b#
b10100 f#
b10100 k#
b10100 ^#
b10100 e#
b10100 i#
b11000 F#
b11000 I#
b11000 T#
b1000000001000011000001000110011 ^
b1000000001000011000001000110011 1"
b1000000001000011000001000110011 ;"
b1000000001000011000001000110011 @"
b10000 ;
b10000 /"
b10000 h
b10000 0"
b10 *
b10 v
b10 V"
b10 q
b10 U"
b1 ,
b1 w
b1 T"
b1 p
b1 S"
b1100 9
b1100 ^"
b1100 *#
b1100 g
b1100 P"
b1100 (#
b1100 +#
b0 \
b0 O"
b0 .#
b0 ;#
0]
b11100 O
b11100 L"
b11100 W
b11100 K"
b11100 b"
b11100 k"
b11100 o"
b11100 s"
b11100 w"
b11100 ~"
b11100 $#
b11100 =#
b11 &
b11 X"
b11 s
b11 W"
b100110 :
b100110 %"
b100110 C#
b100110 O#
b100110 i
b100110 $"
b1111 T
b1111 ~
b1111 @#
b1111 N#
b1111 R
b1111 !"
b1111 Q
b1111 |
b1111 J"
b1111 2#
b1111 7#
b1111 U
b1111 }
b1111 ,"
b10 $
b10 )"
b10 %
b10 y
b10 '"
b10 t
b10 ("
b1 (
b1 3"
b1 H"
b1 [#
b1 #
b1 x
b1 Z#
b1 u
b1 \#
b10011 Y
b10011 W#
b10011 d#
b10100 .
b10100 ["
b10100 5#
b10100 :#
b10100 Y#
b10100 V
b10100 V#
b10100 h#
1/
14
1o
b11000 D#
b11000 J#
b11000 S#
b10100 <
b10100 B#
b10100 E#
b10100 L#
b10100 R#
b10100 U#
b1000000001100001000001010110011 F
b1000000001100001000001010110011 A#
b1000000001100001000001010110011 H#
b1000000001100001000001010110011 M#
b10000 m#
1!
#70000
0!
#75000
b1111 _"
b1111 e"
b1111 l"
b1111 q"
b1111 u"
b1111 {"
b1111 !#
b1111 &#
b1111 /#
b1000001101 x"
b1000001101 y"
b1000001101 z"
b100011 `"
b100011 f"
b100011 m"
b100011 p"
b100011 t"
b100011 |"
b100011 "#
b100011 %#
b100011 ,#
b1111 5
b1111 2"
b1111 G"
b1111 ]#
b1111 l#
b1111 \"
b1111 0#
b1111 9#
b1 I
b1 z
b1 N"
b1 8#
b10 J
b10 {
b10 M"
b10 3#
b10100 7
b10100 8"
b10100 F"
b100011 ]"
b100011 -#
b100011 4#
b10011 `#
b10011 c#
b10011 j#
b1111 _#
b1111 b#
b1111 f#
b1111 k#
b10100 S
b10100 a"
b10100 j"
b11100 F#
b11100 I#
b11100 T#
b1111 ^#
b1111 e#
b1111 i#
b1100 G#
b1100 K#
b1100 P#
b10100 d"
b10100 ##
b101 '
b101 4"
b1 -
b1 6"
b11 +
b11 5"
b1 C"
b11 D"
13
b100100 P
b100100 :"
b100100 ?"
b11100 D#
b11100 J#
b11100 S#
b11000 <
b11000 B#
b11000 E#
b11000 L#
b11000 R#
b11000 U#
b10 (
b10 3"
b10 H"
b10 [#
b10 #
b10 x
b10 Z#
b10 u
b10 \#
b1111 .
b1111 ["
b1111 5#
b1111 :#
b1111 Y#
b1111 V
b1111 V#
b1111 h#
b1100 :
b1100 %"
b1100 C#
b1100 O#
b1100 i
b1100 $"
b100011 T
b100011 ~
b100011 @#
b100011 N#
b100011 R
b100011 !"
b100011 Q
b100011 |
b100011 J"
b100011 2#
b100011 7#
b100011 U
b100011 }
b100011 ,"
b11100 N
b11100 #"
b11100 X
b11100 ""
b11 $
b11 )"
b11 %
b11 y
b11 '"
b11 t
b11 ("
b11 ,
b11 w
b11 T"
b11 p
b11 S"
b10000 9
b10000 ^"
b10000 *#
b10000 g
b10000 P"
b10000 (#
b10000 +#
b100100 O
b100100 L"
b100100 W
b100100 K"
b100100 b"
b100100 k"
b100100 o"
b100100 s"
b100100 w"
b100100 ~"
b100100 $#
b100100 =#
b100 &
b100 X"
b100 s
b100 W"
b1000000001100001000001010110011 ^
b1000000001100001000001010110011 1"
b1000000001100001000001010110011 ;"
b1000000001100001000001010110011 @"
b10100 ;
b10100 /"
b10100 h
b10100 0"
b1000011000001110110011 F
b1000011000001110110011 A#
b1000011000001110110011 H#
b1000011000001110110011 M#
b10000 m#
1!
#80000
0!
#85000
b11111111111111111111111111110001 S
b11111111111111111111111111110001 a"
b11111111111111111111111111110001 j"
b10100 `"
b10100 f"
b10100 m"
b10100 p"
b10100 t"
b10100 |"
b10100 "#
b10100 %#
b10100 ,#
b11111111111111111111111111110001 d"
b11111111111111111111111111110001 ##
b100011 7
b100011 8"
b100011 F"
b10100 ]"
b10100 -#
b10100 4#
b0 J
b0 {
b0 M"
b0 3#
b1111 6
b1111 7"
b1111 E"
b1010111100 x"
b1010111100 y"
b1010111100 z"
b100011 _"
b100011 e"
b100011 l"
b100011 q"
b100011 u"
b100011 {"
b100011 !#
b100011 &#
b100011 /#
b100011 5
b100011 2"
b100011 G"
b100011 ]#
b100011 l#
b100011 \"
b100011 0#
b100011 9#
b111 '
b111 4"
b11 -
b11 6"
b10 +
b10 5"
b11 C"
b10 D"
13
b11100 P
b11100 :"
b11100 ?"
b0 ="
b10000 G#
b10000 K#
b10000 P#
b100111 `#
b100111 c#
b100111 j#
b100011 _#
b100011 b#
b100011 f#
b100011 k#
b100011 ^#
b100011 e#
b100011 i#
b100000 F#
b100000 I#
b100000 T#
b1000011000001110110011 ^
b1000011000001110110011 1"
b1000011000001110110011 ;"
b1000011000001110110011 @"
b11000 ;
b11000 /"
b11000 h
b11000 0"
b11 *
b11 v
b11 V"
b11 q
b11 U"
b1 ,
b1 w
b1 T"
b1 p
b1 S"
b10100 9
b10100 ^"
b10100 *#
b10100 g
b10100 P"
b10100 (#
b10100 +#
b10100 k
b10100 Q"
b10100 1#
b101 &
b101 X"
b101 s
b101 W"
b10000 :
b10000 %"
b10000 C#
b10000 O#
b10000 i
b10000 $"
b10100 T
b10100 ~
b10100 @#
b10100 N#
b10100 R
b10100 !"
b10100 Q
b10100 |
b10100 J"
b10100 2#
b10100 7#
b10100 U
b10100 }
b10100 ,"
b100100 N
b100100 #"
b100100 X
b100100 ""
b100 $
b100 )"
b100 %
b100 y
b100 '"
b100 t
b100 ("
b11 (
b11 3"
b11 H"
b11 [#
b11 #
b11 x
b11 Z#
b11 u
b11 \#
b11100 Y
b11100 W#
b11100 d#
b100011 .
b100011 ["
b100011 5#
b100011 :#
b100011 Y#
b100011 V
b100011 V#
b100011 h#
b100000 D#
b100000 J#
b100000 S#
b11100 <
b11100 B#
b11100 E#
b11100 L#
b11100 R#
b11100 U#
bx F
bx A#
bx H#
bx M#
b10000 m#
1!
#90000
0!
